<?xml version="1.0" encoding="UTF-8"?>
<!DOCTYPE svg PUBLIC '-//W3C//DTD SVG 1.0//EN'
          'http://www.w3.org/TR/2001/REC-SVG-20010904/DTD/svg10.dtd'>
<svg fill-opacity="0" xmlns:xlink="http://www.w3.org/1999/xlink" color-rendering="auto" color-interpolation="auto" text-rendering="auto" stroke="rgb(0,0,0)" stroke-linecap="square" width="1788" stroke-miterlimit="10" shape-rendering="auto" stroke-opacity="0" fill="rgb(0,0,0)" stroke-dasharray="none" font-weight="normal" stroke-width="1" height="1104" xmlns="http://www.w3.org/2000/svg" font-family="'Dialog'" font-style="normal" stroke-linejoin="miter" font-size="12px" stroke-dashoffset="0" image-rendering="auto"
><!--Generated by the Batik Graphics2D SVG Generator--><defs id="genericDefs"
  /><g
  ><defs id="defs1"
    ><clipPath clipPathUnits="userSpaceOnUse" id="clipPath1"
      ><path d="M-7 -7 L141 -7 L141 213 L-7 213 L-7 -7 Z"
      /></clipPath
      ><clipPath clipPathUnits="userSpaceOnUse" id="clipPath2"
      ><path d="M0 0 L0 186 L130 186 L130 0 Z"
      /></clipPath
      ><clipPath clipPathUnits="userSpaceOnUse" id="clipPath3"
      ><path d="M0 0 L0 16 L130 16 L130 0 Z"
      /></clipPath
      ><clipPath clipPathUnits="userSpaceOnUse" id="clipPath4"
      ><path d="M-7 -7 L218 -7 L218 282 L-7 282 L-7 -7 Z"
      /></clipPath
      ><clipPath clipPathUnits="userSpaceOnUse" id="clipPath5"
      ><path d="M0 0 L0 255 L207 255 L207 0 Z"
      /></clipPath
      ><clipPath clipPathUnits="userSpaceOnUse" id="clipPath6"
      ><path d="M0 0 L0 16 L208 16 L208 0 Z"
      /></clipPath
      ><clipPath clipPathUnits="userSpaceOnUse" id="clipPath7"
      ><path d="M-7 -7 L147 -7 L147 109 L-7 109 L-7 -7 Z"
      /></clipPath
      ><clipPath clipPathUnits="userSpaceOnUse" id="clipPath8"
      ><path d="M0 0 L0 83 L136 83 L136 0 Z"
      /></clipPath
      ><clipPath clipPathUnits="userSpaceOnUse" id="clipPath9"
      ><path d="M0 0 L0 15 L136 15 L136 0 Z"
      /></clipPath
      ><clipPath clipPathUnits="userSpaceOnUse" id="clipPath10"
      ><path d="M-7 -7 L191 -7 L191 79 L-7 79 L-7 -7 Z"
      /></clipPath
      ><clipPath clipPathUnits="userSpaceOnUse" id="clipPath11"
      ><path d="M0 0 L0 52 L180 52 L180 0 Z"
      /></clipPath
      ><clipPath clipPathUnits="userSpaceOnUse" id="clipPath12"
      ><path d="M0 0 L0 16 L180 16 L180 0 Z"
      /></clipPath
      ><clipPath clipPathUnits="userSpaceOnUse" id="clipPath13"
      ><path d="M-7 -7 L182 -7 L182 82 L-7 82 L-7 -7 Z"
      /></clipPath
      ><clipPath clipPathUnits="userSpaceOnUse" id="clipPath14"
      ><path d="M0 0 L0 56 L171 56 L171 0 Z"
      /></clipPath
      ><clipPath clipPathUnits="userSpaceOnUse" id="clipPath15"
      ><path d="M0 0 L0 15 L171 15 L171 0 Z"
      /></clipPath
      ><clipPath clipPathUnits="userSpaceOnUse" id="clipPath16"
      ><path d="M-7 -7 L126 -7 L126 55 L-7 55 L-7 -7 Z"
      /></clipPath
      ><clipPath clipPathUnits="userSpaceOnUse" id="clipPath17"
      ><path d="M0 0 L0 28 L115 28 L115 0 Z"
      /></clipPath
      ><clipPath clipPathUnits="userSpaceOnUse" id="clipPath18"
      ><path d="M0 0 L0 16 L115 16 L115 0 Z"
      /></clipPath
      ><clipPath clipPathUnits="userSpaceOnUse" id="clipPath19"
      ><path d="M-7 -7 L134 -7 L134 76 L-7 76 L-7 -7 Z"
      /></clipPath
      ><clipPath clipPathUnits="userSpaceOnUse" id="clipPath20"
      ><path d="M0 0 L0 50 L123 50 L123 0 Z"
      /></clipPath
      ><clipPath clipPathUnits="userSpaceOnUse" id="clipPath21"
      ><path d="M0 0 L0 15 L123 15 L123 0 Z"
      /></clipPath
      ><clipPath clipPathUnits="userSpaceOnUse" id="clipPath22"
      ><path d="M-7 -7 L179 -7 L179 140 L-7 140 L-7 -7 Z"
      /></clipPath
      ><clipPath clipPathUnits="userSpaceOnUse" id="clipPath23"
      ><path d="M0 0 L0 114 L168 114 L168 0 Z"
      /></clipPath
      ><clipPath clipPathUnits="userSpaceOnUse" id="clipPath24"
      ><path d="M0 0 L0 15 L168 15 L168 0 Z"
      /></clipPath
      ><clipPath clipPathUnits="userSpaceOnUse" id="clipPath25"
      ><path d="M-7 -7 L161 -7 L161 83 L-7 83 L-7 -7 Z"
      /></clipPath
      ><clipPath clipPathUnits="userSpaceOnUse" id="clipPath26"
      ><path d="M0 0 L0 57 L150 57 L150 0 Z"
      /></clipPath
      ><clipPath clipPathUnits="userSpaceOnUse" id="clipPath27"
      ><path d="M0 0 L0 15 L150 15 L150 0 Z"
      /></clipPath
      ><clipPath clipPathUnits="userSpaceOnUse" id="clipPath28"
      ><path d="M-7 -7 L265 -7 L265 225 L-7 225 L-7 -7 Z"
      /></clipPath
      ><clipPath clipPathUnits="userSpaceOnUse" id="clipPath29"
      ><path d="M0 0 L0 199 L254 199 L254 0 Z"
      /></clipPath
      ><clipPath clipPathUnits="userSpaceOnUse" id="clipPath30"
      ><path d="M0 0 L0 15 L253 15 L253 0 Z"
      /></clipPath
      ><clipPath clipPathUnits="userSpaceOnUse" id="clipPath31"
      ><path d="M-7 -7 L95 -7 L95 92 L-7 92 L-7 -7 Z"
      /></clipPath
      ><clipPath clipPathUnits="userSpaceOnUse" id="clipPath32"
      ><path d="M0 0 L0 65 L84 65 L84 0 Z"
      /></clipPath
      ><clipPath clipPathUnits="userSpaceOnUse" id="clipPath33"
      ><path d="M0 0 L0 16 L84 16 L84 0 Z"
      /></clipPath
      ><clipPath clipPathUnits="userSpaceOnUse" id="clipPath34"
      ><path d="M-7 -7 L221 -7 L221 179 L-7 179 L-7 -7 Z"
      /></clipPath
      ><clipPath clipPathUnits="userSpaceOnUse" id="clipPath35"
      ><path d="M0 0 L0 153 L210 153 L210 0 Z"
      /></clipPath
      ><clipPath clipPathUnits="userSpaceOnUse" id="clipPath36"
      ><path d="M0 0 L0 15 L210 15 L210 0 Z"
      /></clipPath
      ><clipPath clipPathUnits="userSpaceOnUse" id="clipPath37"
      ><path d="M-7 -7 L137 -7 L137 84 L-7 84 L-7 -7 Z"
      /></clipPath
      ><clipPath clipPathUnits="userSpaceOnUse" id="clipPath38"
      ><path d="M0 0 L0 58 L126 58 L126 0 Z"
      /></clipPath
      ><clipPath clipPathUnits="userSpaceOnUse" id="clipPath39"
      ><path d="M0 0 L0 15 L127 15 L127 0 Z"
      /></clipPath
      ><clipPath clipPathUnits="userSpaceOnUse" id="clipPath40"
      ><path d="M-7 -7 L125 -7 L125 79 L-7 79 L-7 -7 Z"
      /></clipPath
      ><clipPath clipPathUnits="userSpaceOnUse" id="clipPath41"
      ><path d="M0 0 L0 52 L114 52 L114 0 Z"
      /></clipPath
      ><clipPath clipPathUnits="userSpaceOnUse" id="clipPath42"
      ><path d="M-7 -7 L91 -7 L91 51 L-7 51 L-7 -7 Z"
      /></clipPath
      ><clipPath clipPathUnits="userSpaceOnUse" id="clipPath43"
      ><path d="M0 0 L0 25 L80 25 L80 0 Z"
      /></clipPath
      ><clipPath clipPathUnits="userSpaceOnUse" id="clipPath44"
      ><path d="M0 0 L0 15 L80 15 L80 0 Z"
      /></clipPath
      ><clipPath clipPathUnits="userSpaceOnUse" id="clipPath45"
      ><path d="M-7 -7 L38 -7 L38 27 L-7 27 L-7 -7 Z"
      /></clipPath
      ><clipPath clipPathUnits="userSpaceOnUse" id="clipPath46"
      ><path d="M0 0 L0 16 L27 16 L27 0 Z"
      /></clipPath
      ><clipPath clipPathUnits="userSpaceOnUse" id="clipPath47"
      ><path d="M-7 -7 L38 -7 L38 26 L-7 26 L-7 -7 Z"
      /></clipPath
      ><clipPath clipPathUnits="userSpaceOnUse" id="clipPath48"
      ><path d="M0 0 L0 15 L27 15 L27 0 Z"
      /></clipPath
      ><clipPath clipPathUnits="userSpaceOnUse" id="clipPath49"
      ><path d="M-7 -7 L48 -7 L48 26 L-7 26 L-7 -7 Z"
      /></clipPath
      ><clipPath clipPathUnits="userSpaceOnUse" id="clipPath50"
      ><path d="M0 0 L0 15 L37 15 L37 0 Z"
      /></clipPath
      ><clipPath clipPathUnits="userSpaceOnUse" id="clipPath51"
      ><path d="M-7 -7 L51 -7 L51 26 L-7 26 L-7 -7 Z"
      /></clipPath
      ><clipPath clipPathUnits="userSpaceOnUse" id="clipPath52"
      ><path d="M0 0 L0 15 L40 15 L40 0 Z"
      /></clipPath
      ><clipPath clipPathUnits="userSpaceOnUse" id="clipPath53"
      ><path d="M-7 -7 L49 -7 L49 26 L-7 26 L-7 -7 Z"
      /></clipPath
      ><clipPath clipPathUnits="userSpaceOnUse" id="clipPath54"
      ><path d="M0 0 L0 15 L38 15 L38 0 Z"
      /></clipPath
      ><clipPath clipPathUnits="userSpaceOnUse" id="clipPath55"
      ><path d="M-7 -7 L100 -7 L100 26 L-7 26 L-7 -7 Z"
      /></clipPath
      ><clipPath clipPathUnits="userSpaceOnUse" id="clipPath56"
      ><path d="M0 0 L0 15 L89 15 L89 0 Z"
      /></clipPath
      ><clipPath clipPathUnits="userSpaceOnUse" id="clipPath57"
      ><path d="M-7 -7 L48 -7 L48 27 L-7 27 L-7 -7 Z"
      /></clipPath
      ><clipPath clipPathUnits="userSpaceOnUse" id="clipPath58"
      ><path d="M0 0 L0 16 L37 16 L37 0 Z"
      /></clipPath
      ><clipPath clipPathUnits="userSpaceOnUse" id="clipPath59"
      ><path d="M-7 -7 L68 -7 L68 26 L-7 26 L-7 -7 Z"
      /></clipPath
      ><clipPath clipPathUnits="userSpaceOnUse" id="clipPath60"
      ><path d="M0 0 L0 15 L57 15 L57 0 Z"
      /></clipPath
      ><clipPath clipPathUnits="userSpaceOnUse" id="clipPath61"
      ><path d="M-7 -7 L37 -7 L37 26 L-7 26 L-7 -7 Z"
      /></clipPath
      ><clipPath clipPathUnits="userSpaceOnUse" id="clipPath62"
      ><path d="M0 0 L0 15 L26 15 L26 0 Z"
      /></clipPath
      ><clipPath clipPathUnits="userSpaceOnUse" id="clipPath63"
      ><path d="M-7 -7 L102 -7 L102 26 L-7 26 L-7 -7 Z"
      /></clipPath
      ><clipPath clipPathUnits="userSpaceOnUse" id="clipPath64"
      ><path d="M0 0 L0 15 L91 15 L91 0 Z"
      /></clipPath
      ><clipPath clipPathUnits="userSpaceOnUse" id="clipPath65"
      ><path d="M-7 -7 L75 -7 L75 38 L-7 38 L-7 -7 Z"
      /></clipPath
      ><clipPath clipPathUnits="userSpaceOnUse" id="clipPath66"
      ><path d="M0 0 L0 27 L64 27 L64 0 Z"
      /></clipPath
      ><clipPath clipPathUnits="userSpaceOnUse" id="clipPath67"
      ><path d="M-7 -7 L39 -7 L39 26 L-7 26 L-7 -7 Z"
      /></clipPath
      ><clipPath clipPathUnits="userSpaceOnUse" id="clipPath68"
      ><path d="M0 0 L0 15 L28 15 L28 0 Z"
      /></clipPath
      ><clipPath clipPathUnits="userSpaceOnUse" id="clipPath69"
      ><path d="M-7 -7 L113 -7 L113 26 L-7 26 L-7 -7 Z"
      /></clipPath
      ><clipPath clipPathUnits="userSpaceOnUse" id="clipPath70"
      ><path d="M0 0 L0 15 L102 15 L102 0 Z"
      /></clipPath
      ><clipPath clipPathUnits="userSpaceOnUse" id="clipPath71"
      ><path d="M-7 -7 L75 -7 L75 26 L-7 26 L-7 -7 Z"
      /></clipPath
      ><clipPath clipPathUnits="userSpaceOnUse" id="clipPath72"
      ><path d="M0 0 L0 15 L64 15 L64 0 Z"
      /></clipPath
      ><clipPath clipPathUnits="userSpaceOnUse" id="clipPath73"
      ><path d="M-7 -7 L83 -7 L83 27 L-7 27 L-7 -7 Z"
      /></clipPath
      ><clipPath clipPathUnits="userSpaceOnUse" id="clipPath74"
      ><path d="M0 0 L0 16 L72 16 L72 0 Z"
      /></clipPath
      ><clipPath clipPathUnits="userSpaceOnUse" id="clipPath75"
      ><path d="M-7 -7 L70 -7 L70 26 L-7 26 L-7 -7 Z"
      /></clipPath
      ><clipPath clipPathUnits="userSpaceOnUse" id="clipPath76"
      ><path d="M0 0 L0 15 L59 15 L59 0 Z"
      /></clipPath
      ><clipPath clipPathUnits="userSpaceOnUse" id="clipPath77"
      ><path d="M0 0 L1247 0 L1247 719 L0 719 L0 0 Z"
      /></clipPath
      ><clipPath clipPathUnits="userSpaceOnUse" id="clipPath78"
      ><path d="M797 162 L797 177 L759 177 L759 162 ZM235 214 L235 233 L155 233 L155 214 ZM880 254 L880 274 L822 274 L822 254 ZM1127 373 L1127 387 L1015 387 L1015 373 ZM722 382 L722 397 L620 397 L620 382 ZM966 406 L966 424 L871 424 L871 406 ZM1128 522 L1128 540 L1016 540 L1016 522 ZM462 640 L462 655 L334 655 L334 640 ZM0 0 L0 719 L1247 719 L1247 594 L1192 594 L1192 573 L1247 573 L1247 0 L581 0 L581 3 L496 3 L496 0 L277 0 L277 1 L195 1 L195 0 Z"
      /></clipPath
      ><clipPath clipPathUnits="userSpaceOnUse" id="clipPath79"
      ><path d="M0 0 L294 0 L294 104 L0 104 L0 0 Z"
      /></clipPath
      ><clipPath clipPathUnits="userSpaceOnUse" id="clipPath80"
      ><path d="M183 55 L183 73 L98 73 L98 55 ZM0 0 L0 104 L294 104 L294 0 Z"
      /></clipPath
      ><clipPath clipPathUnits="userSpaceOnUse" id="clipPath81"
      ><path d="M0 0 L115 0 L115 198 L0 198 L0 0 Z"
      /></clipPath
      ><clipPath clipPathUnits="userSpaceOnUse" id="clipPath82"
      ><path d="M0 0 L0 198 L115 198 L115 112 L61 112 L61 92 L115 92 L115 0 Z"
      /></clipPath
      ><clipPath clipPathUnits="userSpaceOnUse" id="clipPath83"
      ><path d="M0 0 L222 0 L222 115 L0 115 L0 0 Z"
      /></clipPath
      ><clipPath clipPathUnits="userSpaceOnUse" id="clipPath84"
      ><path d="M152 59 L152 76 L55 76 L55 59 ZM0 0 L0 115 L222 115 L222 0 Z"
      /></clipPath
      ><clipPath clipPathUnits="userSpaceOnUse" id="clipPath85"
      ><path d="M0 0 L826 0 L826 396 L0 396 L0 0 Z"
      /></clipPath
      ><clipPath clipPathUnits="userSpaceOnUse" id="clipPath86"
      ><path d="M508 27 L508 45 L450 45 L450 27 ZM126 253 L126 271 L44 271 L44 253 ZM430 255 L430 273 L345 273 L345 255 ZM0 0 L0 2 L11 2 L11 22 L0 22 L0 396 L826 396 L826 0 Z"
      /></clipPath
      ><clipPath clipPathUnits="userSpaceOnUse" id="clipPath87"
      ><path d="M0 0 L104 0 L104 463 L0 463 L0 0 Z"
      /></clipPath
      ><clipPath clipPathUnits="userSpaceOnUse" id="clipPath88"
      ><path d="M0 0 L0 166 L7 166 L7 186 L0 186 L0 318 L93 318 L93 336 L0 336 L0 463 L104 463 L104 0 Z"
      /></clipPath
      ><clipPath clipPathUnits="userSpaceOnUse" id="clipPath89"
      ><path d="M0 0 L104 0 L104 189 L0 189 L0 0 Z"
      /></clipPath
      ><clipPath clipPathUnits="userSpaceOnUse" id="clipPath90"
      ><path d="M0 0 L0 81 L46 81 L46 102 L0 102 L0 189 L104 189 L104 0 Z"
      /></clipPath
      ><clipPath clipPathUnits="userSpaceOnUse" id="clipPath91"
      ><path d="M0 0 L462 0 L462 321 L0 321 L0 0 Z"
      /></clipPath
      ><clipPath clipPathUnits="userSpaceOnUse" id="clipPath92"
      ><path d="M391 31 L391 47 L305 47 L305 31 ZM0 0 L0 321 L462 321 L462 0 L399 0 L399 8 L325 8 L325 0 Z"
      /></clipPath
      ><clipPath clipPathUnits="userSpaceOnUse" id="clipPath93"
      ><path d="M0 0 L324 0 L324 104 L0 104 L0 0 Z"
      /></clipPath
      ><clipPath clipPathUnits="userSpaceOnUse" id="clipPath94"
      ><path d="M211 54 L211 72 L99 72 L99 54 ZM0 0 L0 104 L324 104 L324 0 Z"
      /></clipPath
      ><clipPath clipPathUnits="userSpaceOnUse" id="clipPath95"
      ><path d="M0 0 L104 0 L104 205 L0 205 L0 0 Z"
      /></clipPath
      ><clipPath clipPathUnits="userSpaceOnUse" id="clipPath96"
      ><path d="M0 0 L0 205 L104 205 L104 109 L52 109 L52 93 L104 93 L104 0 Z"
      /></clipPath
      ><clipPath clipPathUnits="userSpaceOnUse" id="clipPath97"
      ><path d="M0 0 L260 0 L260 116 L0 116 L0 0 Z"
      /></clipPath
      ><clipPath clipPathUnits="userSpaceOnUse" id="clipPath98"
      ><path d="M165 38 L165 55 L87 55 L87 38 ZM0 0 L0 116 L260 116 L260 0 Z"
      /></clipPath
      ><clipPath clipPathUnits="userSpaceOnUse" id="clipPath99"
      ><path d="M0 0 L129 0 L129 401 L0 401 L0 0 Z"
      /></clipPath
      ><clipPath clipPathUnits="userSpaceOnUse" id="clipPath100"
      ><path d="M0 0 L0 136 L59 136 L59 151 L0 151 L0 401 L129 401 L129 0 Z"
      /></clipPath
      ><clipPath clipPathUnits="userSpaceOnUse" id="clipPath101"
      ><path d="M0 0 L224 0 L224 355 L0 355 L0 0 Z"
      /></clipPath
      ><clipPath clipPathUnits="userSpaceOnUse" id="clipPath102"
      ><path d="M162 202 L162 217 L75 217 L75 202 ZM0 0 L0 124 L50 124 L50 141 L0 141 L0 355 L224 355 L224 0 L154 0 L154 13 L57 13 L57 0 Z"
      /></clipPath
      ><clipPath clipPathUnits="userSpaceOnUse" id="clipPath103"
      ><path d="M0 0 L331 0 L331 236 L0 236 L0 0 Z"
      /></clipPath
      ><clipPath clipPathUnits="userSpaceOnUse" id="clipPath104"
      ><path d="M211 58 L211 72 L99 72 L99 58 ZM212 207 L212 225 L100 225 L100 207 ZM0 0 L0 91 L50 91 L50 109 L0 109 L0 236 L331 236 L331 0 Z"
      /></clipPath
      ><clipPath clipPathUnits="userSpaceOnUse" id="clipPath105"
      ><path d="M0 0 L513 0 L513 360 L0 360 L0 0 Z"
      /></clipPath
      ><clipPath clipPathUnits="userSpaceOnUse" id="clipPath106"
      ><path d="M399 31 L399 47 L325 47 L325 31 ZM391 70 L391 86 L305 86 L305 70 ZM0 0 L0 360 L513 360 L513 0 Z"
      /></clipPath
      ><clipPath clipPathUnits="userSpaceOnUse" id="clipPath107"
      ><path d="M0 0 L287 0 L287 329 L0 329 L0 0 Z"
      /></clipPath
      ><clipPath clipPathUnits="userSpaceOnUse" id="clipPath108"
      ><path d="M132 214 L132 233 L52 233 L52 214 ZM0 0 L0 329 L287 329 L287 0 L174 0 L174 1 L92 1 L92 0 Z"
      /></clipPath
      ><clipPath clipPathUnits="userSpaceOnUse" id="clipPath109"
      ><path d="M0 0 L104 0 L104 603 L0 603 L0 0 Z"
      /></clipPath
      ><clipPath clipPathUnits="userSpaceOnUse" id="clipPath110"
      ><path d="M81 306 L81 326 L23 326 L23 306 ZM0 0 L0 603 L104 603 L104 476 L72 476 L72 458 L104 458 L104 0 Z"
      /></clipPath
      ><clipPath clipPathUnits="userSpaceOnUse" id="clipPath111"
      ><path d="M0 0 L178 0 L178 104 L0 104 L0 0 Z"
      /></clipPath
      ><clipPath clipPathUnits="userSpaceOnUse" id="clipPath112"
      ><path d="M126 51 L126 69 L44 69 L44 51 ZM0 0 L0 104 L178 104 L178 0 Z"
      /></clipPath
      ><clipPath clipPathUnits="userSpaceOnUse" id="clipPath113"
      ><path d="M0 0 L264 0 L264 104 L0 104 L0 0 Z"
      /></clipPath
      ><clipPath clipPathUnits="userSpaceOnUse" id="clipPath114"
      ><path d="M180 53 L180 68 L78 68 L78 53 ZM0 0 L0 104 L264 104 L264 0 Z"
      /></clipPath
      ><clipPath clipPathUnits="userSpaceOnUse" id="clipPath115"
      ><path d="M0 0 L542 0 L542 104 L0 104 L0 0 Z"
      /></clipPath
      ><clipPath clipPathUnits="userSpaceOnUse" id="clipPath116"
      ><path d="M0 0 L0 104 L542 104 L542 0 Z"
      /></clipPath
      ><clipPath clipPathUnits="userSpaceOnUse" id="clipPath117"
      ><path d="M0 0 L0 104 L45 104 L45 99 L127 99 L127 104 L346 104 L346 101 L431 101 L431 104 L542 104 L542 0 Z"
      /></clipPath
      ><clipPath clipPathUnits="userSpaceOnUse" id="clipPath118"
      ><path d="M0 0 L541 0 L541 104 L0 104 L0 0 Z"
      /></clipPath
      ><clipPath clipPathUnits="userSpaceOnUse" id="clipPath119"
      ><path d="M0 0 L0 104 L541 104 L541 0 Z"
      /></clipPath
      ><clipPath clipPathUnits="userSpaceOnUse" id="clipPath120"
      ><path d="M0 0 L270 0 L270 416 L0 416 L0 0 Z"
      /></clipPath
      ><clipPath clipPathUnits="userSpaceOnUse" id="clipPath121"
      ><path d="M255 214 L255 229 L217 229 L217 214 ZM0 0 L0 37 L39 37 L39 55 L0 55 L0 416 L270 416 L270 0 Z"
      /></clipPath
      ><clipPath clipPathUnits="userSpaceOnUse" id="clipPath122"
      ><path d="M0 0 L344 0 L344 394 L0 394 L0 0 Z"
      /></clipPath
      ><clipPath clipPathUnits="userSpaceOnUse" id="clipPath123"
      ><path d="M189 214 L189 233 L109 233 L109 214 ZM0 0 L0 394 L344 394 L344 0 L231 0 L231 1 L149 1 L149 0 Z"
      /></clipPath
      ><clipPath clipPathUnits="userSpaceOnUse" id="clipPath124"
      ><path d="M-38 -15 L76 -15 L76 30 L-38 30 L-38 -15 Z"
      /></clipPath
      ><clipPath clipPathUnits="userSpaceOnUse" id="clipPath125"
      ><path d="M-102 -15 L204 -15 L204 30 L-102 30 L-102 -15 Z"
      /></clipPath
      ><clipPath clipPathUnits="userSpaceOnUse" id="clipPath126"
      ><path d="M-112 -15 L194 -15 L194 30 L-112 30 L-112 -15 Z"
      /></clipPath
      ><clipPath clipPathUnits="userSpaceOnUse" id="clipPath127"
      ><path d="M-82 -18 L164 -18 L164 36 L-82 36 L-82 -18 Z"
      /></clipPath
      ><clipPath clipPathUnits="userSpaceOnUse" id="clipPath128"
      ><path d="M-92 -19 L154 -19 L154 35 L-92 35 L-92 -19 Z"
      /></clipPath
      ><clipPath clipPathUnits="userSpaceOnUse" id="clipPath129"
      ><path d="M-58 -20 L116 -20 L116 40 L-58 40 L-58 -20 Z"
      /></clipPath
      ><clipPath clipPathUnits="userSpaceOnUse" id="clipPath130"
      ><path d="M-60 -22 L114 -22 L114 38 L-60 38 L-60 -22 Z"
      /></clipPath
      ><clipPath clipPathUnits="userSpaceOnUse" id="clipPath131"
      ><path d="M-80 -19 L160 -19 L160 38 L-80 38 L-80 -19 Z"
      /></clipPath
      ><clipPath clipPathUnits="userSpaceOnUse" id="clipPath132"
      ><path d="M-91 -20 L149 -20 L149 37 L-91 37 L-91 -20 Z"
      /></clipPath
      ><clipPath clipPathUnits="userSpaceOnUse" id="clipPath133"
      ><path d="M-74 -16 L148 -16 L148 32 L-74 32 L-74 -16 Z"
      /></clipPath
      ><clipPath clipPathUnits="userSpaceOnUse" id="clipPath134"
      ><path d="M-84 -16 L138 -16 L138 32 L-84 32 L-84 -16 Z"
      /></clipPath
      ><clipPath clipPathUnits="userSpaceOnUse" id="clipPath135"
      ><path d="M-112 -14 L224 -14 L224 28 L-112 28 L-112 -14 Z"
      /></clipPath
      ><clipPath clipPathUnits="userSpaceOnUse" id="clipPath136"
      ><path d="M-122 -14 L214 -14 L214 28 L-122 28 L-122 -14 Z"
      /></clipPath
      ><clipPath clipPathUnits="userSpaceOnUse" id="clipPath137"
      ><path d="M-90 -17 L180 -17 L180 34 L-90 34 L-90 -17 Z"
      /></clipPath
      ><clipPath clipPathUnits="userSpaceOnUse" id="clipPath138"
      ><path d="M-100 -17 L170 -17 L170 34 L-100 34 L-100 -17 Z"
      /></clipPath
      ><clipPath clipPathUnits="userSpaceOnUse" id="clipPath139"
      ><path d="M-87 -15 L174 -15 L174 30 L-87 30 L-87 -15 Z"
      /></clipPath
      ><clipPath clipPathUnits="userSpaceOnUse" id="clipPath140"
      ><path d="M-97 -15 L164 -15 L164 30 L-97 30 L-97 -15 Z"
      /></clipPath
      ><clipPath clipPathUnits="userSpaceOnUse" id="clipPath141"
      ><path d="M-78 -17 L156 -17 L156 34 L-78 34 L-78 -17 Z"
      /></clipPath
      ><clipPath clipPathUnits="userSpaceOnUse" id="clipPath142"
      ><path d="M-88 -17 L146 -17 L146 34 L-88 34 L-88 -17 Z"
      /></clipPath
      ><clipPath clipPathUnits="userSpaceOnUse" id="clipPath143"
      ><path d="M-112 -18 L224 -18 L224 36 L-112 36 L-112 -18 Z"
      /></clipPath
      ><clipPath clipPathUnits="userSpaceOnUse" id="clipPath144"
      ><path d="M-122 -19 L214 -19 L214 35 L-122 35 L-122 -19 Z"
      /></clipPath
      ><clipPath clipPathUnits="userSpaceOnUse" id="clipPath145"
      ><path d="M-86 -16 L172 -16 L172 32 L-86 32 L-86 -16 Z"
      /></clipPath
      ><clipPath clipPathUnits="userSpaceOnUse" id="clipPath146"
      ><path d="M-96 -16 L162 -16 L162 32 L-96 32 L-96 -16 Z"
      /></clipPath
      ><clipPath clipPathUnits="userSpaceOnUse" id="clipPath147"
      ><path d="M-72 -21 L144 -21 L144 42 L-72 42 L-72 -21 Z"
      /></clipPath
      ><clipPath clipPathUnits="userSpaceOnUse" id="clipPath148"
      ><path d="M-83 -23 L133 -23 L133 40 L-83 40 L-83 -23 Z"
      /></clipPath
      ><clipPath clipPathUnits="userSpaceOnUse" id="clipPath149"
      ><path d="M-95 -18 L190 -18 L190 36 L-95 36 L-95 -18 Z"
      /></clipPath
      ><clipPath clipPathUnits="userSpaceOnUse" id="clipPath150"
      ><path d="M-105 -19 L180 -19 L180 35 L-105 35 L-105 -19 Z"
      /></clipPath
      ><clipPath clipPathUnits="userSpaceOnUse" id="clipPath151"
      ><path d="M-58 -18 L116 -18 L116 36 L-58 36 L-58 -18 Z"
      /></clipPath
      ><clipPath clipPathUnits="userSpaceOnUse" id="clipPath152"
      ><path d="M-67 -19 L107 -19 L107 35 L-67 35 L-67 -19 Z"
      /></clipPath
      ><clipPath clipPathUnits="userSpaceOnUse" id="clipPath153"
      ><path d="M-97 -17 L194 -17 L194 34 L-97 34 L-97 -17 Z"
      /></clipPath
      ><clipPath clipPathUnits="userSpaceOnUse" id="clipPath154"
      ><path d="M-108 -17 L183 -17 L183 34 L-108 34 L-108 -17 Z"
      /></clipPath
      ><clipPath clipPathUnits="userSpaceOnUse" id="clipPath155"
      ><path d="M-60 -20 L120 -20 L120 40 L-60 40 L-60 -20 Z"
      /></clipPath
      ><clipPath clipPathUnits="userSpaceOnUse" id="clipPath156"
      ><path d="M-68 -22 L112 -22 L112 38 L-68 38 L-68 -22 Z"
      /></clipPath
      ><clipPath clipPathUnits="userSpaceOnUse" id="clipPath157"
      ><path d="M-85 -18 L170 -18 L170 36 L-85 36 L-85 -18 Z"
      /></clipPath
      ><clipPath clipPathUnits="userSpaceOnUse" id="clipPath158"
      ><path d="M-94 -19 L161 -19 L161 35 L-94 35 L-94 -19 Z"
      /></clipPath
      ><clipPath clipPathUnits="userSpaceOnUse" id="clipPath159"
      ><path d="M-128 -15 L256 -15 L256 30 L-128 30 L-128 -15 Z"
      /></clipPath
      ><clipPath clipPathUnits="userSpaceOnUse" id="clipPath160"
      ><path d="M-140 -15 L244 -15 L244 30 L-140 30 L-140 -15 Z"
      /></clipPath
    ></defs
    ><g fill="white" text-rendering="geometricPrecision" fill-opacity="1" stroke-opacity="1" stroke="white"
    ><rect x="0" width="1788" height="1104" y="0" stroke="none"
    /></g
    ><g font-size="11px" transform="translate(1424,538)" fill-opacity="1" fill="rgb(122,207,245)" text-rendering="geometricPrecision" image-rendering="optimizeQuality" font-family="sans-serif" stroke="rgb(122,207,245)" font-weight="bold" stroke-opacity="1"
    ><rect x="0" width="130" height="202" y="0" clip-path="url(#clipPath1)" stroke="none"
    /></g
    ><g fill-opacity="1" text-rendering="geometricPrecision" stroke="black" stroke-linecap="butt" transform="translate(1424,538)" stroke-miterlimit="0" stroke-opacity="1" fill="black" font-weight="bold" font-family="sans-serif" stroke-linejoin="round" font-size="11px" image-rendering="optimizeQuality"
    ><rect fill="none" x="0" width="130" height="202" y="0" clip-path="url(#clipPath1)"
      /><line y2="16" fill="none" x1="0" clip-path="url(#clipPath1)" x2="130" y1="16"
    /></g
    ><g font-size="11px" transform="matrix(1,0,0,1,1424,554)" fill-opacity="1" fill="black" text-rendering="geometricPrecision" image-rendering="optimizeQuality" font-family="sans-serif" stroke="black" stroke-opacity="1"
    ><text x="2" xml:space="preserve" y="14" clip-path="url(#clipPath2)" stroke="none"
      >-name</text
    ></g
    ><g font-size="11px" transform="matrix(1,0,0,1,1424,554)" fill-opacity="1" fill="black" text-rendering="geometricPrecision" image-rendering="optimizeQuality" font-family="sans-serif" stroke="black" stroke-opacity="1"
    ><text x="2" xml:space="preserve" y="29" clip-path="url(#clipPath2)" stroke="none"
      >-description</text
    ></g
    ><g font-size="11px" transform="matrix(1,0,0,1,1424,554)" fill-opacity="1" fill="black" text-rendering="geometricPrecision" image-rendering="optimizeQuality" font-family="sans-serif" stroke="black" stroke-opacity="1"
    ><text x="2" xml:space="preserve" y="44" clip-path="url(#clipPath2)" stroke="none"
      >-start Date</text
    ></g
    ><g font-size="11px" transform="matrix(1,0,0,1,1424,554)" fill-opacity="1" fill="black" text-rendering="geometricPrecision" image-rendering="optimizeQuality" font-family="sans-serif" stroke="black" stroke-opacity="1"
    ><text x="2" xml:space="preserve" y="59" clip-path="url(#clipPath2)" stroke="none"
      >-end Date</text
    ></g
    ><g font-size="11px" transform="matrix(1,0,0,1,1424,554)" fill-opacity="1" fill="black" text-rendering="geometricPrecision" image-rendering="optimizeQuality" font-family="sans-serif" stroke="black" stroke-opacity="1"
    ><text x="2" xml:space="preserve" y="74" clip-path="url(#clipPath2)" stroke="none"
      >-hours Spent</text
    ></g
    ><g font-size="11px" transform="matrix(1,0,0,1,1424,554)" fill-opacity="1" fill="black" text-rendering="geometricPrecision" image-rendering="optimizeQuality" font-family="sans-serif" stroke="black" stroke-opacity="1"
    ><text x="2" xml:space="preserve" y="89" clip-path="url(#clipPath2)" stroke="none"
      >-effort estimate</text
    ></g
    ><g font-size="11px" transform="matrix(1,0,0,1,1424,554)" fill-opacity="1" fill="black" text-rendering="geometricPrecision" image-rendering="optimizeQuality" font-family="sans-serif" stroke="black" stroke-opacity="1"
    ><text x="2" xml:space="preserve" y="104" clip-path="url(#clipPath2)" stroke="none"
      >-percentage of execution</text
    ></g
    ><g font-size="11px" transform="matrix(1,0,0,1,1424,554)" fill-opacity="1" fill="black" text-rendering="geometricPrecision" image-rendering="optimizeQuality" font-family="sans-serif" stroke="black" stroke-opacity="1"
    ><text x="2" xml:space="preserve" y="119" clip-path="url(#clipPath2)" stroke="none"
      >-precedence</text
    ></g
    ><g font-size="11px" transform="matrix(1,0,0,1,1424,554)" fill-opacity="1" fill="black" text-rendering="geometricPrecision" image-rendering="optimizeQuality" font-family="sans-serif" stroke="black" stroke-opacity="1"
    ><text x="2" xml:space="preserve" y="134" clip-path="url(#clipPath2)" stroke="none"
      >-task Status</text
    ></g
    ><g font-size="11px" transform="matrix(1,0,0,1,1424,554)" fill-opacity="1" fill="black" text-rendering="geometricPrecision" image-rendering="optimizeQuality" font-family="sans-serif" stroke="black" stroke-opacity="1"
    ><text x="2" xml:space="preserve" y="149" clip-path="url(#clipPath2)" stroke="none"
      >-responsible</text
    ></g
    ><g font-size="11px" transform="matrix(1,0,0,1,1424,554)" fill-opacity="1" fill="black" text-rendering="geometricPrecision" image-rendering="optimizeQuality" font-family="sans-serif" stroke="black" stroke-opacity="1"
    ><text x="2" xml:space="preserve" y="164" clip-path="url(#clipPath2)" stroke="none"
      >-type of task</text
    ></g
    ><g font-size="11px" transform="translate(1424,538)" fill-opacity="1" fill="black" text-rendering="geometricPrecision" image-rendering="optimizeQuality" font-family="sans-serif" stroke="black" font-weight="bold" stroke-opacity="1"
    ><text x="51" xml:space="preserve" y="12" clip-path="url(#clipPath3)" stroke="none"
      >Task</text
    ></g
    ><g font-size="11px" transform="translate(223,152)" fill-opacity="1" fill="rgb(122,207,245)" text-rendering="geometricPrecision" image-rendering="optimizeQuality" font-family="sans-serif" stroke="rgb(122,207,245)" font-weight="bold" stroke-opacity="1"
    ><rect x="0" width="207" height="271" y="0" clip-path="url(#clipPath4)" stroke="none"
    /></g
    ><g fill-opacity="1" text-rendering="geometricPrecision" stroke="black" stroke-linecap="butt" transform="translate(223,152)" stroke-miterlimit="0" stroke-opacity="1" fill="black" font-weight="bold" font-family="sans-serif" stroke-linejoin="round" font-size="11px" image-rendering="optimizeQuality"
    ><rect fill="none" x="0" width="207" height="271" y="0" clip-path="url(#clipPath4)"
      /><line y2="16" fill="none" x1="0" clip-path="url(#clipPath4)" x2="207" y1="16"
    /></g
    ><g font-size="11px" transform="matrix(1,0,0,1,223,168)" fill-opacity="1" fill="black" text-rendering="geometricPrecision" image-rendering="optimizeQuality" font-family="sans-serif" stroke="black" stroke-opacity="1"
    ><text x="2" xml:space="preserve" y="14" clip-path="url(#clipPath5)" stroke="none"
      >-code</text
    ></g
    ><g font-size="11px" transform="matrix(1,0,0,1,223,168)" fill-opacity="1" fill="black" text-rendering="geometricPrecision" image-rendering="optimizeQuality" font-family="sans-serif" stroke="black" stroke-opacity="1"
    ><text x="2" xml:space="preserve" y="29" clip-path="url(#clipPath5)" stroke="none"
      >-name</text
    ></g
    ><g font-size="11px" transform="matrix(1,0,0,1,223,168)" fill-opacity="1" fill="black" text-rendering="geometricPrecision" image-rendering="optimizeQuality" font-family="sans-serif" stroke="black" stroke-opacity="1"
    ><text x="2" xml:space="preserve" y="44" clip-path="url(#clipPath5)" stroke="none"
      >-description</text
    ></g
    ><g font-size="11px" transform="matrix(1,0,0,1,223,168)" fill-opacity="1" fill="black" text-rendering="geometricPrecision" image-rendering="optimizeQuality" font-family="sans-serif" stroke="black" stroke-opacity="1"
    ><text x="2" xml:space="preserve" y="59" clip-path="url(#clipPath5)" stroke="none"
      >-start Date</text
    ></g
    ><g font-size="11px" transform="matrix(1,0,0,1,223,168)" fill-opacity="1" fill="black" text-rendering="geometricPrecision" image-rendering="optimizeQuality" font-family="sans-serif" stroke="black" stroke-opacity="1"
    ><text x="2" xml:space="preserve" y="74" clip-path="url(#clipPath5)" stroke="none"
      >-sprint Duration</text
    ></g
    ><g font-size="11px" transform="matrix(1,0,0,1,223,168)" fill-opacity="1" fill="black" text-rendering="geometricPrecision" image-rendering="optimizeQuality" font-family="sans-serif" stroke="black" stroke-opacity="1"
    ><text x="2" xml:space="preserve" y="89" clip-path="url(#clipPath5)" stroke="none"
      >-number of planned Sprints</text
    ></g
    ><g font-size="11px" transform="matrix(1,0,0,1,223,168)" fill-opacity="1" fill="black" text-rendering="geometricPrecision" image-rendering="optimizeQuality" font-family="sans-serif" stroke="black" stroke-opacity="1"
    ><text x="2" xml:space="preserve" y="104" clip-path="url(#clipPath5)" stroke="none"
      >-end Date</text
    ></g
    ><g font-size="11px" transform="matrix(1,0,0,1,223,168)" fill-opacity="1" fill="black" text-rendering="geometricPrecision" image-rendering="optimizeQuality" font-family="sans-serif" stroke="black" stroke-opacity="1"
    ><text x="2" xml:space="preserve" y="119" clip-path="url(#clipPath5)" stroke="none"
      >-business Sector</text
    ></g
    ><g font-size="11px" transform="matrix(1,0,0,1,223,168)" fill-opacity="1" fill="black" text-rendering="geometricPrecision" image-rendering="optimizeQuality" font-family="sans-serif" stroke="black" stroke-opacity="1"
    ><text x="2" xml:space="preserve" y="134" clip-path="url(#clipPath5)" stroke="none"
      >-typology</text
    ></g
    ><g font-size="11px" transform="matrix(1,0,0,1,223,168)" fill-opacity="1" fill="black" text-rendering="geometricPrecision" image-rendering="optimizeQuality" font-family="sans-serif" stroke="black" stroke-opacity="1"
    ><text x="2" xml:space="preserve" y="149" clip-path="url(#clipPath5)" stroke="none"
      >-project Status</text
    ></g
    ><g font-size="11px" transform="translate(223,152)" fill-opacity="1" fill="black" text-rendering="geometricPrecision" image-rendering="optimizeQuality" font-family="sans-serif" stroke="black" font-weight="bold" stroke-opacity="1"
    ><text x="84" xml:space="preserve" y="12" clip-path="url(#clipPath6)" stroke="none"
      >Project</text
    ></g
    ><g font-size="11px" transform="translate(1424,1002)" fill-opacity="1" fill="rgb(122,207,245)" text-rendering="geometricPrecision" image-rendering="optimizeQuality" font-family="sans-serif" stroke="rgb(122,207,245)" font-weight="bold" stroke-opacity="1"
    ><rect x="0" width="136" height="98" y="0" clip-path="url(#clipPath7)" stroke="none"
    /></g
    ><g fill-opacity="1" text-rendering="geometricPrecision" stroke="black" stroke-linecap="butt" transform="translate(1424,1002)" stroke-miterlimit="0" stroke-opacity="1" fill="black" font-weight="bold" font-family="sans-serif" stroke-linejoin="round" font-size="11px" image-rendering="optimizeQuality"
    ><rect fill="none" x="0" width="136" height="98" y="0" clip-path="url(#clipPath7)"
      /><line y2="15" fill="none" x1="0" clip-path="url(#clipPath7)" x2="136" y1="15"
    /></g
    ><g font-size="11px" transform="matrix(1,0,0,1,1424,1017)" fill-opacity="1" fill="black" text-rendering="geometricPrecision" image-rendering="optimizeQuality" font-family="sans-serif" stroke="black" stroke-opacity="1"
    ><text x="2" xml:space="preserve" y="14" clip-path="url(#clipPath8)" stroke="none"
      >-id</text
    ></g
    ><g font-size="11px" transform="matrix(1,0,0,1,1424,1017)" fill-opacity="1" fill="black" text-rendering="geometricPrecision" image-rendering="optimizeQuality" font-family="sans-serif" stroke="black" stroke-opacity="1"
    ><text x="2" xml:space="preserve" y="29" clip-path="url(#clipPath8)" stroke="none"
      >-goal</text
    ></g
    ><g font-size="11px" transform="matrix(1,0,0,1,1424,1017)" fill-opacity="1" fill="black" text-rendering="geometricPrecision" image-rendering="optimizeQuality" font-family="sans-serif" stroke="black" stroke-opacity="1"
    ><text x="2" xml:space="preserve" y="44" clip-path="url(#clipPath8)" stroke="none"
      >-start Date</text
    ></g
    ><g font-size="11px" transform="matrix(1,0,0,1,1424,1017)" fill-opacity="1" fill="black" text-rendering="geometricPrecision" image-rendering="optimizeQuality" font-family="sans-serif" stroke="black" stroke-opacity="1"
    ><text x="2" xml:space="preserve" y="59" clip-path="url(#clipPath8)" stroke="none"
      >-end Date</text
    ></g
    ><g font-size="11px" transform="translate(1424,1002)" fill-opacity="1" fill="black" text-rendering="geometricPrecision" image-rendering="optimizeQuality" font-family="sans-serif" stroke="black" font-weight="bold" stroke-opacity="1"
    ><text x="52" xml:space="preserve" y="12" clip-path="url(#clipPath9)" stroke="none"
      >Sprint</text
    ></g
    ><g font-size="11px" transform="translate(237,2)" fill-opacity="1" fill="rgb(122,207,245)" text-rendering="geometricPrecision" image-rendering="optimizeQuality" font-family="sans-serif" stroke="rgb(122,207,245)" font-weight="bold" stroke-opacity="1"
    ><rect x="0" width="180" height="68" y="0" clip-path="url(#clipPath10)" stroke="none"
    /></g
    ><g fill-opacity="1" text-rendering="geometricPrecision" stroke="black" stroke-linecap="butt" transform="translate(237,2)" stroke-miterlimit="0" stroke-opacity="1" fill="black" font-weight="bold" font-family="sans-serif" stroke-linejoin="round" font-size="11px" image-rendering="optimizeQuality"
    ><rect fill="none" x="0" width="180" height="68" y="0" clip-path="url(#clipPath10)"
      /><line y2="16" fill="none" x1="0" clip-path="url(#clipPath10)" x2="180" y1="16"
    /></g
    ><g font-size="11px" transform="matrix(1,0,0,1,237,18)" fill-opacity="1" fill="black" text-rendering="geometricPrecision" image-rendering="optimizeQuality" font-family="sans-serif" stroke="black" stroke-opacity="1"
    ><text x="2" xml:space="preserve" y="14" clip-path="url(#clipPath11)" stroke="none"
      >-id</text
    ></g
    ><g font-size="11px" transform="matrix(1,0,0,1,237,18)" fill-opacity="1" fill="black" text-rendering="geometricPrecision" image-rendering="optimizeQuality" font-family="sans-serif" stroke="black" stroke-opacity="1"
    ><text x="2" xml:space="preserve" y="29" clip-path="url(#clipPath11)" stroke="none"
      >-name</text
    ></g
    ><g font-size="11px" transform="translate(237,2)" fill-opacity="1" fill="black" text-rendering="geometricPrecision" image-rendering="optimizeQuality" font-family="sans-serif" stroke="black" font-weight="bold" stroke-opacity="1"
    ><text x="63" xml:space="preserve" y="12" clip-path="url(#clipPath12)" stroke="none"
      >Customer</text
    ></g
    ><g font-size="11px" transform="translate(506,327)" fill-opacity="1" fill="rgb(122,207,245)" text-rendering="geometricPrecision" image-rendering="optimizeQuality" font-family="sans-serif" stroke="rgb(122,207,245)" font-weight="bold" stroke-opacity="1"
    ><rect x="0" width="171" height="71" y="0" clip-path="url(#clipPath13)" stroke="none"
    /></g
    ><g fill-opacity="1" text-rendering="geometricPrecision" stroke="black" stroke-linecap="butt" transform="translate(506,327)" stroke-miterlimit="0" stroke-opacity="1" fill="black" font-weight="bold" font-family="sans-serif" stroke-linejoin="round" font-size="11px" image-rendering="optimizeQuality"
    ><rect fill="none" x="0" width="171" height="71" y="0" clip-path="url(#clipPath13)"
      /><line y2="15" fill="none" x1="0" clip-path="url(#clipPath13)" x2="171" y1="15"
    /></g
    ><g font-size="11px" transform="translate(506,327)" fill-opacity="1" fill="black" text-rendering="geometricPrecision" image-rendering="optimizeQuality" font-family="sans-serif" stroke="black" font-weight="bold" stroke-opacity="1"
    ><text x="50" xml:space="preserve" y="12" clip-path="url(#clipPath15)" stroke="none"
      >Project Team</text
    ></g
    ><g font-size="11px" transform="translate(0,266)" fill-opacity="1" fill="rgb(122,207,245)" text-rendering="geometricPrecision" image-rendering="optimizeQuality" font-family="sans-serif" stroke="rgb(122,207,245)" font-weight="bold" stroke-opacity="1"
    ><rect x="0" width="115" height="44" y="0" clip-path="url(#clipPath16)" stroke="none"
    /></g
    ><g fill-opacity="1" text-rendering="geometricPrecision" stroke="black" stroke-linecap="butt" transform="translate(0,266)" stroke-miterlimit="0" stroke-opacity="1" fill="black" font-weight="bold" font-family="sans-serif" stroke-linejoin="round" font-size="11px" image-rendering="optimizeQuality"
    ><rect fill="none" x="0" width="115" height="44" y="0" clip-path="url(#clipPath16)"
      /><line y2="16" fill="none" x1="0" clip-path="url(#clipPath16)" x2="115" y1="16"
    /></g
    ><g font-size="11px" transform="translate(0,266)" fill-opacity="1" fill="black" text-rendering="geometricPrecision" image-rendering="optimizeQuality" font-family="sans-serif" stroke="black" font-weight="bold" stroke-opacity="1"
    ><text x="38" xml:space="preserve" y="12" clip-path="url(#clipPath18)" stroke="none"
      >Budget</text
    ></g
    ><g font-size="11px" transform="translate(1106,447)" fill-opacity="1" fill="rgb(122,207,245)" text-rendering="geometricPrecision" image-rendering="optimizeQuality" font-family="sans-serif" stroke="rgb(122,207,245)" font-weight="bold" stroke-opacity="1"
    ><rect x="0" width="123" height="65" y="0" clip-path="url(#clipPath19)" stroke="none"
    /></g
    ><g fill-opacity="1" text-rendering="geometricPrecision" stroke="black" stroke-linecap="butt" transform="translate(1106,447)" stroke-miterlimit="0" stroke-opacity="1" fill="black" font-weight="bold" font-family="sans-serif" stroke-linejoin="round" font-size="11px" image-rendering="optimizeQuality"
    ><rect fill="none" x="0" width="123" height="65" y="0" clip-path="url(#clipPath19)"
      /><line y2="15" fill="none" x1="0" clip-path="url(#clipPath19)" x2="123" y1="15"
    /></g
    ><g font-size="11px" transform="translate(1106,447)" fill-opacity="1" fill="black" text-rendering="geometricPrecision" image-rendering="optimizeQuality" font-family="sans-serif" stroke="black" font-weight="bold" stroke-opacity="1"
    ><text x="19" xml:space="preserve" y="12" clip-path="url(#clipPath21)" stroke="none"
      >Project Backlog</text
    ></g
    ><g font-size="11px" transform="translate(1028,872)" fill-opacity="1" fill="rgb(122,207,245)" text-rendering="geometricPrecision" image-rendering="optimizeQuality" font-family="sans-serif" stroke="rgb(122,207,245)" font-weight="bold" stroke-opacity="1"
    ><rect x="0" width="168" height="129" y="0" clip-path="url(#clipPath22)" stroke="none"
    /></g
    ><g fill-opacity="1" text-rendering="geometricPrecision" stroke="black" stroke-linecap="butt" transform="translate(1028,872)" stroke-miterlimit="0" stroke-opacity="1" fill="black" font-weight="bold" font-family="sans-serif" stroke-linejoin="round" font-size="11px" image-rendering="optimizeQuality"
    ><rect fill="none" x="0" width="168" height="129" y="0" clip-path="url(#clipPath22)"
      /><line y2="15" fill="none" x1="0" clip-path="url(#clipPath22)" x2="168" y1="15"
    /></g
    ><g font-size="11px" transform="matrix(1,0,0,1,1028,887)" fill-opacity="1" fill="black" text-rendering="geometricPrecision" image-rendering="optimizeQuality" font-family="sans-serif" stroke="black" stroke-opacity="1"
    ><text x="2" xml:space="preserve" y="14" clip-path="url(#clipPath23)" stroke="none"
      >-status</text
    ></g
    ><g font-size="11px" transform="translate(1028,872)" fill-opacity="1" fill="black" text-rendering="geometricPrecision" image-rendering="optimizeQuality" font-family="sans-serif" stroke="black" font-weight="bold" stroke-opacity="1"
    ><text x="56" xml:space="preserve" y="12" clip-path="url(#clipPath24)" stroke="none"
      >User Story</text
    ></g
    ><g font-size="11px" transform="translate(1418,843)" fill-opacity="1" fill="rgb(122,207,245)" text-rendering="geometricPrecision" image-rendering="optimizeQuality" font-family="sans-serif" stroke="rgb(122,207,245)" font-weight="bold" stroke-opacity="1"
    ><rect x="0" width="150" height="72" y="0" clip-path="url(#clipPath25)" stroke="none"
    /></g
    ><g fill-opacity="1" text-rendering="geometricPrecision" stroke="black" stroke-linecap="butt" transform="translate(1418,843)" stroke-miterlimit="0" stroke-opacity="1" fill="black" font-weight="bold" font-family="sans-serif" stroke-linejoin="round" font-size="11px" image-rendering="optimizeQuality"
    ><rect fill="none" x="0" width="150" height="72" y="0" clip-path="url(#clipPath25)"
      /><line y2="15" fill="none" x1="0" clip-path="url(#clipPath25)" x2="150" y1="15"
    /></g
    ><g font-size="11px" transform="translate(1418,843)" fill-opacity="1" fill="black" text-rendering="geometricPrecision" image-rendering="optimizeQuality" font-family="sans-serif" stroke="black" font-weight="bold" stroke-opacity="1"
    ><text x="36" xml:space="preserve" y="12" clip-path="url(#clipPath27)" stroke="none"
      >Sprint Backlog</text
    ></g
    ><g font-size="11px" transform="translate(567,629)" fill-opacity="1" fill="rgb(122,207,245)" text-rendering="geometricPrecision" image-rendering="optimizeQuality" font-family="sans-serif" stroke="rgb(122,207,245)" font-weight="bold" stroke-opacity="1"
    ><rect x="0" width="254" height="214" y="0" clip-path="url(#clipPath28)" stroke="none"
    /></g
    ><g fill-opacity="1" text-rendering="geometricPrecision" stroke="black" stroke-linecap="butt" transform="translate(567,629)" stroke-miterlimit="0" stroke-opacity="1" fill="black" font-weight="bold" font-family="sans-serif" stroke-linejoin="round" font-size="11px" image-rendering="optimizeQuality"
    ><rect fill="none" x="0" width="254" height="214" y="0" clip-path="url(#clipPath28)"
      /><line y2="15" fill="none" x1="0" clip-path="url(#clipPath28)" x2="254" y1="15"
    /></g
    ><g font-size="11px" transform="matrix(1,0,0,1,567,644)" fill-opacity="1" fill="black" text-rendering="geometricPrecision" image-rendering="optimizeQuality" font-family="sans-serif" stroke="black" stroke-opacity="1"
    ><text x="2" xml:space="preserve" y="14" clip-path="url(#clipPath29)" stroke="none"
      >-name</text
    ></g
    ><g font-size="11px" transform="matrix(1,0,0,1,567,644)" fill-opacity="1" fill="black" text-rendering="geometricPrecision" image-rendering="optimizeQuality" font-family="sans-serif" stroke="black" stroke-opacity="1"
    ><text x="2" xml:space="preserve" y="29" clip-path="url(#clipPath29)" stroke="none"
      >-function</text
    ></g
    ><g font-size="11px" transform="matrix(1,0,0,1,567,644)" fill-opacity="1" fill="black" text-rendering="geometricPrecision" image-rendering="optimizeQuality" font-family="sans-serif" stroke="black" stroke-opacity="1"
    ><text x="2" xml:space="preserve" y="44" clip-path="url(#clipPath29)" stroke="none"
      >-email</text
    ></g
    ><g font-size="11px" transform="matrix(1,0,0,1,567,644)" fill-opacity="1" fill="black" text-rendering="geometricPrecision" image-rendering="optimizeQuality" font-family="sans-serif" stroke="black" stroke-opacity="1"
    ><text x="2" xml:space="preserve" y="59" clip-path="url(#clipPath29)" stroke="none"
      >-password</text
    ></g
    ><g font-size="11px" transform="matrix(1,0,0,1,567,644)" fill-opacity="1" fill="black" text-rendering="geometricPrecision" image-rendering="optimizeQuality" font-family="sans-serif" stroke="black" stroke-opacity="1"
    ><text x="2" xml:space="preserve" y="74" clip-path="url(#clipPath29)" stroke="none"
      >-photo</text
    ></g
    ><g font-size="11px" transform="translate(567,629)" fill-opacity="1" fill="black" text-rendering="geometricPrecision" image-rendering="optimizeQuality" font-family="sans-serif" stroke="black" font-weight="bold" stroke-opacity="1"
    ><text x="113" xml:space="preserve" y="12" clip-path="url(#clipPath30)" stroke="none"
      >User</text
    ></g
    ><g font-size="11px" transform="translate(1700,598)" fill-opacity="1" fill="rgb(122,207,245)" text-rendering="geometricPrecision" image-rendering="optimizeQuality" font-family="sans-serif" stroke="rgb(122,207,245)" font-weight="bold" stroke-opacity="1"
    ><rect x="0" width="84" height="81" y="0" clip-path="url(#clipPath31)" stroke="none"
    /></g
    ><g fill-opacity="1" text-rendering="geometricPrecision" stroke="black" stroke-linecap="butt" transform="translate(1700,598)" stroke-miterlimit="0" stroke-opacity="1" fill="black" font-weight="bold" font-family="sans-serif" stroke-linejoin="round" font-size="11px" image-rendering="optimizeQuality"
    ><rect fill="none" x="0" width="84" height="81" y="0" clip-path="url(#clipPath31)"
      /><line y2="16" fill="none" x1="0" clip-path="url(#clipPath31)" x2="84" y1="16"
    /></g
    ><g font-size="11px" transform="matrix(1,0,0,1,1700,614)" fill-opacity="1" fill="black" text-rendering="geometricPrecision" image-rendering="optimizeQuality" font-family="sans-serif" stroke="black" stroke-opacity="1"
    ><text x="2" xml:space="preserve" y="14" clip-path="url(#clipPath32)" stroke="none"
      >-comment</text
    ></g
    ><g font-size="11px" transform="matrix(1,0,0,1,1700,614)" fill-opacity="1" fill="black" text-rendering="geometricPrecision" image-rendering="optimizeQuality" font-family="sans-serif" stroke="black" stroke-opacity="1"
    ><text x="2" xml:space="preserve" y="29" clip-path="url(#clipPath32)" stroke="none"
      >-date</text
    ></g
    ><g font-size="11px" transform="matrix(1,0,0,1,1700,614)" fill-opacity="1" fill="black" text-rendering="geometricPrecision" image-rendering="optimizeQuality" font-family="sans-serif" stroke="black" stroke-opacity="1"
    ><text x="2" xml:space="preserve" y="44" clip-path="url(#clipPath32)" stroke="none"
      >-attachment</text
    ></g
    ><g font-size="11px" transform="translate(1700,598)" fill-opacity="1" fill="black" text-rendering="geometricPrecision" image-rendering="optimizeQuality" font-family="sans-serif" stroke="black" font-weight="bold" stroke-opacity="1"
    ><text x="8" xml:space="preserve" y="12" clip-path="url(#clipPath33)" stroke="none"
      >Task Record</text
    ></g
    ><g font-size="11px" transform="translate(869,203)" fill-opacity="1" fill="rgb(122,207,245)" text-rendering="geometricPrecision" image-rendering="optimizeQuality" font-family="sans-serif" stroke="rgb(122,207,245)" font-weight="bold" stroke-opacity="1"
    ><rect x="0" width="210" height="168" y="0" clip-path="url(#clipPath34)" stroke="none"
    /></g
    ><g fill-opacity="1" text-rendering="geometricPrecision" stroke="black" stroke-linecap="butt" transform="translate(869,203)" stroke-miterlimit="0" stroke-opacity="1" fill="black" font-weight="bold" font-family="sans-serif" stroke-linejoin="round" font-size="11px" image-rendering="optimizeQuality"
    ><rect fill="none" x="0" width="210" height="168" y="0" clip-path="url(#clipPath34)"
      /><line y2="15" fill="none" x1="0" clip-path="url(#clipPath34)" x2="210" y1="15"
    /></g
    ><g font-size="11px" transform="matrix(1,0,0,1,869,218)" fill-opacity="1" fill="black" text-rendering="geometricPrecision" image-rendering="optimizeQuality" font-family="sans-serif" stroke="black" stroke-opacity="1"
    ><text x="2" xml:space="preserve" y="14" clip-path="url(#clipPath35)" stroke="none"
      >-start Date</text
    ></g
    ><g font-size="11px" transform="matrix(1,0,0,1,869,218)" fill-opacity="1" fill="black" text-rendering="geometricPrecision" image-rendering="optimizeQuality" font-family="sans-serif" stroke="black" stroke-opacity="1"
    ><text x="2" xml:space="preserve" y="29" clip-path="url(#clipPath35)" stroke="none"
      >-end Date</text
    ></g
    ><g font-size="11px" transform="matrix(1,0,0,1,869,218)" fill-opacity="1" fill="black" text-rendering="geometricPrecision" image-rendering="optimizeQuality" font-family="sans-serif" stroke="black" stroke-opacity="1"
    ><text x="2" xml:space="preserve" y="44" clip-path="url(#clipPath35)" stroke="none"
      >-cost per hour</text
    ></g
    ><g font-size="11px" transform="matrix(1,0,0,1,869,218)" fill-opacity="1" fill="black" text-rendering="geometricPrecision" image-rendering="optimizeQuality" font-family="sans-serif" stroke="black" stroke-opacity="1"
    ><text x="2" xml:space="preserve" y="59" clip-path="url(#clipPath35)" stroke="none"
      >-percentage of allocation</text
    ></g
    ><g font-size="11px" transform="translate(869,203)" fill-opacity="1" fill="black" text-rendering="geometricPrecision" image-rendering="optimizeQuality" font-family="sans-serif" stroke="black" font-weight="bold" stroke-opacity="1"
    ><text x="79" xml:space="preserve" y="12" clip-path="url(#clipPath36)" stroke="none"
      >Resource</text
    ></g
    ><g font-size="11px" transform="translate(141,695)" fill-opacity="1" fill="rgb(122,207,245)" text-rendering="geometricPrecision" image-rendering="optimizeQuality" font-family="sans-serif" stroke="rgb(122,207,245)" font-weight="bold" stroke-opacity="1"
    ><rect x="0" width="126" height="73" y="0" clip-path="url(#clipPath37)" stroke="none"
    /></g
    ><g fill-opacity="1" text-rendering="geometricPrecision" stroke="black" stroke-linecap="butt" transform="translate(141,695)" stroke-miterlimit="0" stroke-opacity="1" fill="black" font-weight="bold" font-family="sans-serif" stroke-linejoin="round" font-size="11px" image-rendering="optimizeQuality"
    ><rect fill="none" x="0" width="126" height="73" y="0" clip-path="url(#clipPath37)"
      /><line y2="15" fill="none" x1="0" clip-path="url(#clipPath37)" x2="126" y1="15"
    /></g
    ><g font-size="11px" transform="matrix(1,0,0,1,141,710)" fill-opacity="1" fill="black" text-rendering="geometricPrecision" image-rendering="optimizeQuality" font-family="sans-serif" stroke="black" stroke-opacity="1"
    ><text x="2" xml:space="preserve" y="14" clip-path="url(#clipPath38)" stroke="none"
      >-start date</text
    ></g
    ><g font-size="11px" transform="matrix(1,0,0,1,141,710)" fill-opacity="1" fill="black" text-rendering="geometricPrecision" image-rendering="optimizeQuality" font-family="sans-serif" stroke="black" stroke-opacity="1"
    ><text x="2" xml:space="preserve" y="29" clip-path="url(#clipPath38)" stroke="none"
      >-end date</text
    ></g
    ><g font-size="11px" transform="translate(141,695)" fill-opacity="1" fill="black" text-rendering="geometricPrecision" image-rendering="optimizeQuality" font-family="sans-serif" stroke="black" font-weight="bold" stroke-opacity="1"
    ><text x="17" xml:space="preserve" y="12" clip-path="url(#clipPath39)" stroke="none"
      >Allocation Report</text
    ></g
    ><g font-size="11px" transform="translate(38,589)" fill-opacity="1" fill="rgb(122,207,245)" text-rendering="geometricPrecision" image-rendering="optimizeQuality" font-family="sans-serif" stroke="rgb(122,207,245)" font-weight="bold" stroke-opacity="1"
    ><rect x="0" width="114" height="68" y="0" clip-path="url(#clipPath40)" stroke="none"
    /></g
    ><g fill-opacity="1" text-rendering="geometricPrecision" stroke="black" stroke-linecap="butt" transform="translate(38,589)" stroke-miterlimit="0" stroke-opacity="1" fill="black" font-weight="bold" font-family="sans-serif" stroke-linejoin="round" font-size="11px" image-rendering="optimizeQuality"
    ><rect fill="none" x="0" width="114" height="68" y="0" clip-path="url(#clipPath40)"
      /><line y2="16" fill="none" x1="0" clip-path="url(#clipPath40)" x2="114" y1="16"
    /></g
    ><g font-size="11px" transform="matrix(1,0,0,1,38,605)" fill-opacity="1" fill="black" text-rendering="geometricPrecision" image-rendering="optimizeQuality" font-family="sans-serif" stroke="black" stroke-opacity="1"
    ><text x="2" xml:space="preserve" y="14" clip-path="url(#clipPath41)" stroke="none"
      >-spi</text
    ></g
    ><g font-size="11px" transform="matrix(1,0,0,1,38,605)" fill-opacity="1" fill="black" text-rendering="geometricPrecision" image-rendering="optimizeQuality" font-family="sans-serif" stroke="black" stroke-opacity="1"
    ><text x="2" xml:space="preserve" y="29" clip-path="url(#clipPath41)" stroke="none"
      >-cpi</text
    ></g
    ><g font-size="11px" transform="translate(38,589)" fill-opacity="1" fill="black" text-rendering="geometricPrecision" image-rendering="optimizeQuality" font-family="sans-serif" stroke="black" font-weight="bold" stroke-opacity="1"
    ><text x="29" xml:space="preserve" y="12" clip-path="url(#clipPath18)" stroke="none"
      >KPI Report</text
    ></g
    ><g font-size="11px" transform="translate(983,733)" fill-opacity="1" fill="rgb(122,207,245)" text-rendering="geometricPrecision" image-rendering="optimizeQuality" font-family="sans-serif" stroke="rgb(122,207,245)" font-weight="bold" stroke-opacity="1"
    ><rect x="0" width="80" height="40" y="0" clip-path="url(#clipPath42)" stroke="none"
    /></g
    ><g fill-opacity="1" text-rendering="geometricPrecision" stroke="black" stroke-linecap="butt" transform="translate(983,733)" stroke-miterlimit="0" stroke-opacity="1" fill="black" font-weight="bold" font-family="sans-serif" stroke-linejoin="round" font-size="11px" image-rendering="optimizeQuality"
    ><rect fill="none" x="0" width="80" height="40" y="0" clip-path="url(#clipPath42)"
      /><line y2="15" fill="none" x1="0" clip-path="url(#clipPath42)" x2="80" y1="15"
    /></g
    ><g font-size="11px" transform="translate(983,733)" fill-opacity="1" fill="black" text-rendering="geometricPrecision" image-rendering="optimizeQuality" font-family="sans-serif" stroke="black" font-weight="bold" stroke-opacity="1"
    ><text x="22" xml:space="preserve" y="12" clip-path="url(#clipPath44)" stroke="none"
      >Profile</text
    ></g
    ><g font-size="11px" transform="translate(423,130)" fill-opacity="1" fill="black" text-rendering="geometricPrecision" image-rendering="optimizeQuality" font-family="sans-serif" stroke="black" stroke-opacity="1"
    ><text x="10" xml:space="preserve" y="12" clip-path="url(#clipPath46)" stroke="none"
      >1</text
    ></g
    ><g font-size="11px" transform="translate(1124,427)" fill-opacity="1" fill="black" text-rendering="geometricPrecision" image-rendering="optimizeQuality" font-family="sans-serif" stroke="black" stroke-opacity="1"
    ><text x="10" xml:space="preserve" y="12" clip-path="url(#clipPath46)" stroke="none"
      >1</text
    ></g
    ><g font-size="11px" transform="translate(192,427)" fill-opacity="1" fill="black" text-rendering="geometricPrecision" image-rendering="optimizeQuality" font-family="sans-serif" stroke="black" stroke-opacity="1"
    ><text x="10" xml:space="preserve" y="12" clip-path="url(#clipPath48)" stroke="none"
      >1</text
    ></g
    ><g font-size="11px" transform="translate(190,675)" fill-opacity="1" fill="black" text-rendering="geometricPrecision" image-rendering="optimizeQuality" font-family="sans-serif" stroke="black" stroke-opacity="1"
    ><text x="10" xml:space="preserve" y="12" clip-path="url(#clipPath50)" stroke="none"
      >0..*</text
    ></g
    ><g font-size="11px" transform="translate(1152,518)" fill-opacity="1" fill="black" text-rendering="geometricPrecision" image-rendering="optimizeQuality" font-family="sans-serif" stroke="black" stroke-opacity="1"
    ><text x="10" xml:space="preserve" y="12" clip-path="url(#clipPath48)" stroke="none"
      >1</text
    ></g
    ><g font-size="11px" transform="translate(1197,851)" fill-opacity="1" fill="black" text-rendering="geometricPrecision" image-rendering="optimizeQuality" font-family="sans-serif" stroke="black" stroke-opacity="1"
    ><text x="10" xml:space="preserve" y="12" clip-path="url(#clipPath52)" stroke="none"
      >0..1</text
    ></g
    ><g font-size="11px" transform="translate(1144,848)" fill-opacity="1" fill="black" text-rendering="geometricPrecision" image-rendering="optimizeQuality" font-family="sans-serif" stroke="black" stroke-opacity="1"
    ><text x="10" xml:space="preserve" y="12" clip-path="url(#clipPath50)" stroke="none"
      >1..*</text
    ></g
    ><g font-size="11px" transform="translate(1380,743)" fill-opacity="1" fill="black" text-rendering="geometricPrecision" image-rendering="optimizeQuality" font-family="sans-serif" stroke="black" stroke-opacity="1"
    ><text x="10" xml:space="preserve" y="12" clip-path="url(#clipPath54)" stroke="none"
      >0..*</text
    ></g
    ><g font-size="11px" transform="translate(472,333)" fill-opacity="1" fill="black" text-rendering="geometricPrecision" image-rendering="optimizeQuality" font-family="sans-serif" stroke="black" stroke-opacity="1"
    ><text x="10" xml:space="preserve" y="12" clip-path="url(#clipPath46)" stroke="none"
      >1</text
    ></g
    ><g font-size="11px" transform="translate(436,333)" fill-opacity="1" fill="black" text-rendering="geometricPrecision" image-rendering="optimizeQuality" font-family="sans-serif" stroke="black" stroke-opacity="1"
    ><text x="10" xml:space="preserve" y="12" clip-path="url(#clipPath46)" stroke="none"
      >1</text
    ></g
    ><g font-size="11px" transform="translate(768,280)" fill-opacity="1" fill="black" text-rendering="geometricPrecision" image-rendering="optimizeQuality" font-family="sans-serif" stroke="black" stroke-opacity="1"
    ><text x="10" xml:space="preserve" y="12" clip-path="url(#clipPath56)" stroke="none"
      >Scrum Master</text
    ></g
    ><g font-size="11px" transform="translate(734,279)" fill-opacity="1" fill="black" text-rendering="geometricPrecision" image-rendering="optimizeQuality" font-family="sans-serif" stroke="black" stroke-opacity="1"
    ><text x="10" xml:space="preserve" y="12" clip-path="url(#clipPath46)" stroke="none"
      >1</text
    ></g
    ><g font-size="11px" transform="translate(436,287)" fill-opacity="1" fill="black" text-rendering="geometricPrecision" image-rendering="optimizeQuality" font-family="sans-serif" stroke="black" stroke-opacity="1"
    ><text x="10" xml:space="preserve" y="12" clip-path="url(#clipPath58)" stroke="none"
      >1..*</text
    ></g
    ><g font-size="11px" transform="translate(1014,375)" fill-opacity="1" fill="black" text-rendering="geometricPrecision" image-rendering="optimizeQuality" font-family="sans-serif" stroke="black" stroke-opacity="1"
    ><text x="10" xml:space="preserve" y="12" clip-path="url(#clipPath60)" stroke="none"
      >Creator</text
    ></g
    ><g font-size="11px" transform="translate(1079,376)" fill-opacity="1" fill="black" text-rendering="geometricPrecision" image-rendering="optimizeQuality" font-family="sans-serif" stroke="black" stroke-opacity="1"
    ><text x="10" xml:space="preserve" y="12" clip-path="url(#clipPath48)" stroke="none"
      >1</text
    ></g
    ><g font-size="11px" transform="translate(1086,853)" fill-opacity="1" fill="black" text-rendering="geometricPrecision" image-rendering="optimizeQuality" font-family="sans-serif" stroke="black" stroke-opacity="1"
    ><text x="10" xml:space="preserve" y="12" clip-path="url(#clipPath50)" stroke="none"
      >1..*</text
    ></g
    ><g font-size="11px" transform="translate(1367,873)" fill-opacity="1" fill="black" text-rendering="geometricPrecision" image-rendering="optimizeQuality" font-family="sans-serif" stroke="black" stroke-opacity="1"
    ><text x="10" xml:space="preserve" y="12" clip-path="url(#clipPath50)" stroke="none"
      >1..*</text
    ></g
    ><g font-size="11px" transform="translate(1202,875)" fill-opacity="1" fill="black" text-rendering="geometricPrecision" image-rendering="optimizeQuality" font-family="sans-serif" stroke="black" stroke-opacity="1"
    ><text x="10" xml:space="preserve" y="12" clip-path="url(#clipPath50)" stroke="none"
      >1..*</text
    ></g
    ><g font-size="11px" transform="translate(471,629)" fill-opacity="1" fill="black" text-rendering="geometricPrecision" image-rendering="optimizeQuality" font-family="sans-serif" stroke="black" stroke-opacity="1"
    ><text x="10" xml:space="preserve" y="12" clip-path="url(#clipPath60)" stroke="none"
      >Creator</text
    ></g
    ><g font-size="11px" transform="translate(533,631)" fill-opacity="1" fill="black" text-rendering="geometricPrecision" image-rendering="optimizeQuality" font-family="sans-serif" stroke="black" stroke-opacity="1"
    ><text x="9" xml:space="preserve" y="12" clip-path="url(#clipPath62)" stroke="none"
      >1</text
    ></g
    ><g font-size="11px" transform="translate(388,431)" fill-opacity="1" fill="black" text-rendering="geometricPrecision" image-rendering="optimizeQuality" font-family="sans-serif" stroke="black" stroke-opacity="1"
    ><text x="10" xml:space="preserve" y="12" clip-path="url(#clipPath50)" stroke="none"
      >1..*</text
    ></g
    ><g font-size="11px" transform="translate(770,232)" fill-opacity="1" fill="black" text-rendering="geometricPrecision" image-rendering="optimizeQuality" font-family="sans-serif" stroke="black" stroke-opacity="1"
    ><text x="10" xml:space="preserve" y="12" clip-path="url(#clipPath64)" stroke="none"
      >Product owner</text
    ></g
    ><g font-size="11px" transform="translate(436,234)" fill-opacity="1" fill="black" text-rendering="geometricPrecision" image-rendering="optimizeQuality" font-family="sans-serif" stroke="black" stroke-opacity="1"
    ><text x="10" xml:space="preserve" y="12" clip-path="url(#clipPath58)" stroke="none"
      >1..*</text
    ></g
    ><g font-size="11px" transform="translate(734,231)" fill-opacity="1" fill="black" text-rendering="geometricPrecision" image-rendering="optimizeQuality" font-family="sans-serif" stroke="black" stroke-opacity="1"
    ><text x="10" xml:space="preserve" y="12" clip-path="url(#clipPath46)" stroke="none"
      >1</text
    ></g
    ><g font-size="11px" transform="translate(818,756)" fill-opacity="1" fill="black" text-rendering="geometricPrecision" image-rendering="optimizeQuality" font-family="sans-serif" stroke="black" stroke-opacity="1"
    ><text x="10" xml:space="preserve" y="12" clip-path="url(#clipPath50)" stroke="none"
      >0..*</text
    ></g
    ><g font-size="11px" transform="translate(946,756)" fill-opacity="1" fill="black" text-rendering="geometricPrecision" image-rendering="optimizeQuality" font-family="sans-serif" stroke="black" stroke-opacity="1"
    ><text x="10" xml:space="preserve" y="12" clip-path="url(#clipPath50)" stroke="none"
      >1..*</text
    ></g
    ><g font-size="11px" transform="translate(1126,256)" fill-opacity="1" fill="black" text-rendering="geometricPrecision" image-rendering="optimizeQuality" font-family="sans-serif" stroke="black" stroke-opacity="1"
    ><text x="13" xml:space="preserve" y="18" clip-path="url(#clipPath66)" stroke="none"
      >Creator</text
    ></g
    ><g font-size="11px" transform="translate(1084,261)" fill-opacity="1" fill="black" text-rendering="geometricPrecision" image-rendering="optimizeQuality" font-family="sans-serif" stroke="black" stroke-opacity="1"
    ><text x="10" xml:space="preserve" y="12" clip-path="url(#clipPath54)" stroke="none"
      >1..*</text
    ></g
    ><g font-size="11px" transform="translate(1460,517)" fill-opacity="1" fill="black" text-rendering="geometricPrecision" image-rendering="optimizeQuality" font-family="sans-serif" stroke="black" stroke-opacity="1"
    ><text x="10" xml:space="preserve" y="12" clip-path="url(#clipPath68)" stroke="none"
      >1</text
    ></g
    ><g font-size="11px" transform="translate(1466,980)" fill-opacity="1" fill="black" text-rendering="geometricPrecision" image-rendering="optimizeQuality" font-family="sans-serif" stroke="black" stroke-opacity="1"
    ><text x="10" xml:space="preserve" y="12" clip-path="url(#clipPath48)" stroke="none"
      >1</text
    ></g
    ><g font-size="11px" transform="translate(1459,920)" fill-opacity="1" fill="black" text-rendering="geometricPrecision" image-rendering="optimizeQuality" font-family="sans-serif" stroke="black" stroke-opacity="1"
    ><text x="10" xml:space="preserve" y="12" clip-path="url(#clipPath48)" stroke="none"
      >1</text
    ></g
    ><g font-size="11px" transform="translate(760,190)" fill-opacity="1" fill="black" text-rendering="geometricPrecision" image-rendering="optimizeQuality" font-family="sans-serif" stroke="black" stroke-opacity="1"
    ><text x="10" xml:space="preserve" y="12" clip-path="url(#clipPath70)" stroke="none"
      >Project Manager</text
    ></g
    ><g font-size="11px" transform="translate(731,191)" fill-opacity="1" fill="black" text-rendering="geometricPrecision" image-rendering="optimizeQuality" font-family="sans-serif" stroke="black" stroke-opacity="1"
    ><text x="10" xml:space="preserve" y="12" clip-path="url(#clipPath46)" stroke="none"
      >1</text
    ></g
    ><g font-size="11px" transform="translate(439,198)" fill-opacity="1" fill="black" text-rendering="geometricPrecision" image-rendering="optimizeQuality" font-family="sans-serif" stroke="black" stroke-opacity="1"
    ><text x="10" xml:space="preserve" y="12" clip-path="url(#clipPath58)" stroke="none"
      >1..*</text
    ></g
    ><g font-size="11px" transform="translate(1119,303)" fill-opacity="1" fill="black" text-rendering="geometricPrecision" image-rendering="optimizeQuality" font-family="sans-serif" stroke="black" stroke-opacity="1"
    ><text x="10" xml:space="preserve" y="12" clip-path="url(#clipPath72)" stroke="none"
      >Executor</text
    ></g
    ><g font-size="11px" transform="translate(1084,297)" fill-opacity="1" fill="black" text-rendering="geometricPrecision" image-rendering="optimizeQuality" font-family="sans-serif" stroke="black" stroke-opacity="1"
    ><text x="10" xml:space="preserve" y="12" clip-path="url(#clipPath54)" stroke="none"
      >1..*</text
    ></g
    ><g font-size="11px" transform="translate(1396,519)" fill-opacity="1" fill="black" text-rendering="geometricPrecision" image-rendering="optimizeQuality" font-family="sans-serif" stroke="black" stroke-opacity="1"
    ><text x="10" xml:space="preserve" y="12" clip-path="url(#clipPath50)" stroke="none"
      >1..*</text
    ></g
    ><g font-size="11px" transform="translate(279,430)" fill-opacity="1" fill="black" text-rendering="geometricPrecision" image-rendering="optimizeQuality" font-family="sans-serif" stroke="black" stroke-opacity="1"
    ><text x="10" xml:space="preserve" y="12" clip-path="url(#clipPath48)" stroke="none"
      >1</text
    ></g
    ><g font-size="11px" transform="translate(1377,1040)" fill-opacity="1" fill="black" text-rendering="geometricPrecision" image-rendering="optimizeQuality" font-family="sans-serif" stroke="black" stroke-opacity="1"
    ><text x="10" xml:space="preserve" y="12" clip-path="url(#clipPath50)" stroke="none"
      >1..*</text
    ></g
    ><g font-size="11px" transform="translate(797,333)" fill-opacity="1" fill="black" text-rendering="geometricPrecision" image-rendering="optimizeQuality" font-family="sans-serif" stroke="black" stroke-opacity="1"
    ><text x="10" xml:space="preserve" y="12" clip-path="url(#clipPath74)" stroke="none"
      >Developer</text
    ></g
    ><g font-size="11px" transform="translate(775,334)" fill-opacity="1" fill="black" text-rendering="geometricPrecision" image-rendering="optimizeQuality" font-family="sans-serif" stroke="black" stroke-opacity="1"
    ><text x="10" xml:space="preserve" y="12" clip-path="url(#clipPath46)" stroke="none"
      >1</text
    ></g
    ><g font-size="11px" transform="translate(685,333)" fill-opacity="1" fill="black" text-rendering="geometricPrecision" image-rendering="optimizeQuality" font-family="sans-serif" stroke="black" stroke-opacity="1"
    ><text x="10" xml:space="preserve" y="12" clip-path="url(#clipPath58)" stroke="none"
      >1..*</text
    ></g
    ><g font-size="11px" transform="translate(1555,621)" fill-opacity="1" fill="black" text-rendering="geometricPrecision" image-rendering="optimizeQuality" font-family="sans-serif" stroke="black" stroke-opacity="1"
    ><text x="10" xml:space="preserve" y="12" clip-path="url(#clipPath48)" stroke="none"
      >1</text
    ></g
    ><g font-size="11px" transform="translate(1656,620)" fill-opacity="1" fill="black" text-rendering="geometricPrecision" image-rendering="optimizeQuality" font-family="sans-serif" stroke="black" stroke-opacity="1"
    ><text x="10" xml:space="preserve" y="12" clip-path="url(#clipPath50)" stroke="none"
      >0..*</text
    ></g
    ><g font-size="11px" transform="translate(1496,746)" fill-opacity="1" fill="black" text-rendering="geometricPrecision" image-rendering="optimizeQuality" font-family="sans-serif" stroke="black" stroke-opacity="1"
    ><text x="10" xml:space="preserve" y="12" clip-path="url(#clipPath50)" stroke="none"
      >1..*</text
    ></g
    ><g font-size="11px" transform="translate(1500,823)" fill-opacity="1" fill="black" text-rendering="geometricPrecision" image-rendering="optimizeQuality" font-family="sans-serif" stroke="black" stroke-opacity="1"
    ><text x="10" xml:space="preserve" y="12" clip-path="url(#clipPath50)" stroke="none"
      >1..*</text
    ></g
    ><g font-size="11px" transform="translate(330,75)" fill-opacity="1" fill="black" text-rendering="geometricPrecision" image-rendering="optimizeQuality" font-family="sans-serif" stroke="black" stroke-opacity="1"
    ><text x="10" xml:space="preserve" y="12" clip-path="url(#clipPath46)" stroke="none"
      >1</text
    ></g
    ><g font-size="11px" transform="translate(334,132)" fill-opacity="1" fill="black" text-rendering="geometricPrecision" image-rendering="optimizeQuality" font-family="sans-serif" stroke="black" stroke-opacity="1"
    ><text x="10" xml:space="preserve" y="12" clip-path="url(#clipPath58)" stroke="none"
      >1..*</text
    ></g
    ><g font-size="11px" transform="translate(187,269)" fill-opacity="1" fill="black" text-rendering="geometricPrecision" image-rendering="optimizeQuality" font-family="sans-serif" stroke="black" stroke-opacity="1"
    ><text x="10" xml:space="preserve" y="12" clip-path="url(#clipPath46)" stroke="none"
      >1</text
    ></g
    ><g font-size="11px" transform="translate(121,267)" fill-opacity="1" fill="black" text-rendering="geometricPrecision" image-rendering="optimizeQuality" font-family="sans-serif" stroke="black" stroke-opacity="1"
    ><text x="10" xml:space="preserve" y="12" clip-path="url(#clipPath46)" stroke="none"
      >1</text
    ></g
    ><g font-size="11px" transform="translate(191,324)" fill-opacity="1" fill="black" text-rendering="geometricPrecision" image-rendering="optimizeQuality" font-family="sans-serif" stroke="black" stroke-opacity="1"
    ><text x="10" xml:space="preserve" y="12" clip-path="url(#clipPath48)" stroke="none"
      >1</text
    ></g
    ><g font-size="11px" transform="translate(66,567)" fill-opacity="1" fill="black" text-rendering="geometricPrecision" image-rendering="optimizeQuality" font-family="sans-serif" stroke="black" stroke-opacity="1"
    ><text x="10" xml:space="preserve" y="12" clip-path="url(#clipPath50)" stroke="none"
      >0..*</text
    ></g
    ><g font-size="11px" transform="translate(470,693)" fill-opacity="1" fill="black" text-rendering="geometricPrecision" image-rendering="optimizeQuality" font-family="sans-serif" stroke="black" stroke-opacity="1"
    ><text x="10" xml:space="preserve" y="12" clip-path="url(#clipPath76)" stroke="none"
      >Director</text
    ></g
    ><g font-size="11px" transform="translate(536,694)" fill-opacity="1" fill="black" text-rendering="geometricPrecision" image-rendering="optimizeQuality" font-family="sans-serif" stroke="black" stroke-opacity="1"
    ><text x="10" xml:space="preserve" y="12" clip-path="url(#clipPath48)" stroke="none"
      >1</text
    ></g
    ><g font-size="11px" transform="translate(325,432)" fill-opacity="1" fill="black" text-rendering="geometricPrecision" image-rendering="optimizeQuality" font-family="sans-serif" stroke="black" stroke-opacity="1"
    ><text x="10" xml:space="preserve" y="12" clip-path="url(#clipPath48)" stroke="none"
      >1</text
    ></g
    ><g stroke-linecap="butt" font-size="11px" transform="translate(230,374)" fill-opacity="1" fill="black" text-rendering="geometricPrecision" image-rendering="optimizeQuality" font-family="sans-serif" stroke-linejoin="round" stroke="black" stroke-opacity="1"
    ><line y2="665" fill="none" x1="50" clip-path="url(#clipPath78)" x2="50" y1="50"
      /><line y2="665" fill="none" x1="50" clip-path="url(#clipPath78)" x2="1193" y1="665"
    /></g
    ><g stroke-linecap="butt" font-size="11px" transform="translate(628,304)" fill-opacity="1" fill="black" text-rendering="geometricPrecision" image-rendering="optimizeQuality" font-family="sans-serif" stroke-linejoin="round" stroke="black" stroke-opacity="1"
    ><line y2="50" fill="none" x1="240" clip-path="url(#clipPath80)" x2="50" y1="50"
    /></g
    ><g stroke-linecap="butt" font-size="11px" transform="translate(271,14)" fill-opacity="1" fill="black" text-rendering="geometricPrecision" image-rendering="optimizeQuality" font-family="sans-serif" stroke-linejoin="round" stroke="black" stroke-opacity="1"
    ><line y2="138" fill="none" x1="55" clip-path="url(#clipPath82)" x2="55" y1="55"
    /></g
    ><g stroke-linecap="butt" font-size="11px" transform="translate(60,231)" fill-opacity="1" fill="black" text-rendering="geometricPrecision" image-rendering="optimizeQuality" font-family="sans-serif" stroke-linejoin="round" stroke="black" stroke-opacity="1"
    ><line y2="56" fill="none" x1="163" clip-path="url(#clipPath84)" x2="55" y1="56"
    /></g
    ><g stroke-linecap="butt" font-size="11px" transform="translate(381,104)" fill-opacity="1" fill="black" text-rendering="geometricPrecision" image-rendering="optimizeQuality" font-family="sans-serif" stroke-linejoin="round" stroke="black" stroke-opacity="1"
    ><line y2="50" fill="none" x1="50" clip-path="url(#clipPath86)" x2="772" y1="50"
      /><line y2="342" fill="none" x1="772" clip-path="url(#clipPath86)" x2="772" y1="50"
    /></g
    ><g stroke-linecap="butt" font-size="11px" transform="translate(1103,462)" fill-opacity="1" fill="black" text-rendering="geometricPrecision" image-rendering="optimizeQuality" font-family="sans-serif" stroke-linejoin="round" stroke="black" stroke-opacity="1"
    ><line y2="50" fill="none" x1="50" clip-path="url(#clipPath88)" x2="50" y1="409"
    /></g
    ><g stroke-linecap="butt" font-size="11px" transform="translate(1448,866)" fill-opacity="1" fill="black" text-rendering="geometricPrecision" image-rendering="optimizeQuality" font-family="sans-serif" stroke-linejoin="round" stroke="black" stroke-opacity="1"
    ><line y2="50" fill="none" x1="50" clip-path="url(#clipPath90)" x2="50" y1="135"
    /></g
    ><g stroke-linecap="butt" font-size="11px" transform="translate(1030,270)" fill-opacity="1" fill="black" text-rendering="geometricPrecision" image-rendering="optimizeQuality" font-family="sans-serif" stroke-linejoin="round" stroke="black" stroke-opacity="1"
    ><line y2="50" fill="none" x1="50" clip-path="url(#clipPath92)" x2="408" y1="50"
      /><line y2="267" fill="none" x1="408" clip-path="url(#clipPath92)" x2="408" y1="50"
    /></g
    ><g stroke-linecap="butt" font-size="11px" transform="translate(1147,842)" fill-opacity="1" fill="black" text-rendering="geometricPrecision" image-rendering="optimizeQuality" font-family="sans-serif" stroke-linejoin="round" stroke="black" stroke-opacity="1"
    ><line y2="50" fill="none" x1="270" clip-path="url(#clipPath94)" x2="50" y1="50"
    /></g
    ><g stroke-linecap="butt" font-size="11px" transform="translate(1448,691)" fill-opacity="1" fill="black" text-rendering="geometricPrecision" image-rendering="optimizeQuality" font-family="sans-serif" stroke-linejoin="round" stroke="black" stroke-opacity="1"
    ><line y2="151" fill="none" x1="50" clip-path="url(#clipPath96)" x2="50" y1="50"
    /></g
    ><g stroke-linecap="butt" font-size="11px" transform="translate(1498,583)" fill-opacity="1" fill="black" text-rendering="geometricPrecision" image-rendering="optimizeQuality" font-family="sans-serif" stroke-linejoin="round" stroke="black" stroke-opacity="1"
    ><line y2="55" fill="none" x1="56" clip-path="url(#clipPath98)" x2="201" y1="56"
    /></g
    ><g stroke-linecap="butt" font-size="11px" transform="translate(161,360)" fill-opacity="1" fill="black" text-rendering="geometricPrecision" image-rendering="optimizeQuality" font-family="sans-serif" stroke-linejoin="round" stroke="black" stroke-opacity="1"
    ><line y2="335" fill="none" x1="62" clip-path="url(#clipPath100)" x2="62" y1="62"
    /></g
    ><g stroke-linecap="butt" font-size="11px" transform="translate(58,294)" fill-opacity="1" fill="black" text-rendering="geometricPrecision" image-rendering="optimizeQuality" font-family="sans-serif" stroke-linejoin="round" stroke="black" stroke-opacity="1"
    ><line y2="55" fill="none" x1="165" clip-path="url(#clipPath102)" x2="56" y1="55"
      /><line y2="295" fill="none" x1="56" clip-path="url(#clipPath102)" x2="56" y1="55"
    /></g
    ><g stroke-linecap="butt" font-size="11px" transform="translate(1146,689)" fill-opacity="1" fill="black" text-rendering="geometricPrecision" image-rendering="optimizeQuality" font-family="sans-serif" stroke-linejoin="round" stroke="black" stroke-opacity="1"
    ><line y2="50" fill="none" x1="50" clip-path="url(#clipPath104)" x2="50" y1="182"
      /><line y2="50" fill="none" x1="50" clip-path="url(#clipPath104)" x2="277" y1="50"
    /></g
    ><g stroke-linecap="butt" font-size="11px" transform="translate(1030,231)" fill-opacity="1" fill="black" text-rendering="geometricPrecision" image-rendering="optimizeQuality" font-family="sans-serif" stroke-linejoin="round" stroke="black" stroke-opacity="1"
    ><line y2="50" fill="none" x1="50" clip-path="url(#clipPath106)" x2="459" y1="50"
      /><line y2="306" fill="none" x1="459" clip-path="url(#clipPath106)" x2="459" y1="50"
    /></g
    ><g stroke-linecap="butt" font-size="11px" transform="translate(333,374)" fill-opacity="1" fill="black" text-rendering="geometricPrecision" image-rendering="optimizeQuality" font-family="sans-serif" stroke-linejoin="round" stroke="black" stroke-opacity="1"
    ><line y2="275" fill="none" x1="233" clip-path="url(#clipPath108)" x2="50" y1="275"
      /><line y2="50" fill="none" x1="50" clip-path="url(#clipPath108)" x2="50" y1="275"
    /></g
    ><g stroke-linecap="butt" font-size="11px" transform="translate(1029,322)" fill-opacity="1" fill="black" text-rendering="geometricPrecision" image-rendering="optimizeQuality" font-family="sans-serif" stroke-linejoin="round" stroke="black" stroke-opacity="1"
    ><line y2="549" fill="none" x1="50" clip-path="url(#clipPath110)" x2="50" y1="50"
    /></g
    ><g stroke-linecap="butt" font-size="11px" transform="translate(381,306)" fill-opacity="1" fill="black" text-rendering="geometricPrecision" image-rendering="optimizeQuality" font-family="sans-serif" stroke-linejoin="round" stroke="black" stroke-opacity="1"
    ><line y2="50" fill="none" x1="124" clip-path="url(#clipPath112)" x2="50" y1="50"
    /></g
    ><g stroke-linecap="butt" font-size="11px" transform="translate(772,703)" fill-opacity="1" fill="black" text-rendering="geometricPrecision" image-rendering="optimizeQuality" font-family="sans-serif" stroke-linejoin="round" stroke="black" stroke-opacity="1"
    ><line y2="50" fill="none" x1="50" clip-path="url(#clipPath114)" x2="210" y1="50"
    /></g
    ><g stroke-linecap="butt" font-size="11px" transform="translate(380,205)" fill-opacity="1" fill="black" text-rendering="geometricPrecision" image-rendering="optimizeQuality" font-family="sans-serif" stroke-linejoin="round" stroke="black" stroke-opacity="1"
    ><line y2="50" fill="none" x1="50" clip-path="url(#clipPath116)" x2="488" y1="50"
    /></g
    ><g stroke-linecap="butt" font-size="11px" transform="translate(380,258)" fill-opacity="1" fill="black" text-rendering="geometricPrecision" image-rendering="optimizeQuality" font-family="sans-serif" stroke-linejoin="round" stroke="black" stroke-opacity="1"
    ><line y2="50" fill="none" x1="488" clip-path="url(#clipPath117)" x2="50" y1="50"
    /></g
    ><g stroke-linecap="butt" font-size="11px" transform="translate(381,165)" fill-opacity="1" fill="black" text-rendering="geometricPrecision" image-rendering="optimizeQuality" font-family="sans-serif" stroke-linejoin="round" stroke="black" stroke-opacity="1"
    ><line y2="50" fill="none" x1="487" clip-path="url(#clipPath119)" x2="50" y1="50"
    /></g
    ><g stroke-linecap="butt" font-size="11px" transform="translate(772,322)" fill-opacity="1" fill="black" text-rendering="geometricPrecision" image-rendering="optimizeQuality" font-family="sans-serif" stroke-linejoin="round" stroke="black" stroke-opacity="1"
    ><line y2="362" fill="none" x1="50" clip-path="url(#clipPath121)" x2="216" y1="362"
      /><line y2="50" fill="none" x1="216" clip-path="url(#clipPath121)" x2="216" y1="362"
      /><polygon fill="white" clip-path="url(#clipPath121)" points=" 50 362 62 368 62 356" stroke="none"
      /><polygon fill="none" points=" 50 362 62 368 62 356" clip-path="url(#clipPath121)"
    /></g
    ><g stroke-linecap="butt" font-size="11px" transform="translate(276,374)" fill-opacity="1" fill="black" text-rendering="geometricPrecision" image-rendering="optimizeQuality" font-family="sans-serif" stroke-linejoin="round" stroke="black" stroke-opacity="1"
    ><line y2="340" fill="none" x1="50" clip-path="url(#clipPath123)" x2="50" y1="50"
      /><line y2="340" fill="none" x1="50" clip-path="url(#clipPath123)" x2="290" y1="340"
    /></g
    ><g font-size="11px" transform="translate(989,536)" fill-opacity="1" fill="black" text-rendering="geometricPrecision" image-rendering="optimizeQuality" font-family="sans-serif" stroke="black" stroke-opacity="1"
    ><text x="9" xml:space="preserve" y="12" clip-path="url(#clipPath124)" stroke="none"
      >is a</text
    ></g
    ><g font-size="11px" transform="translate(860,756)" fill-opacity="1" fill="black" text-rendering="geometricPrecision" image-rendering="optimizeQuality" font-family="sans-serif" stroke="black" stroke-opacity="1"
    ><path d="M14.5 6.5 L1.5 11.5 L1.5 1.5 Z" stroke="none" clip-path="url(#clipPath126)"
      /><text x="27" xml:space="preserve" y="12" clip-path="url(#clipPath125)" transform="translate(-10,0)" stroke="none"
      >is assigned a</text
    ></g
    ><g font-size="11px" transform="translate(435,358)" fill-opacity="1" fill="black" text-rendering="geometricPrecision" image-rendering="optimizeQuality" font-family="sans-serif" stroke="black" stroke-opacity="1"
    ><path d="M1.5 6.5 L14.5 1.5 L14.5 11.5 Z" stroke="none" clip-path="url(#clipPath128)"
      /><text x="27" xml:space="preserve" y="13" clip-path="url(#clipPath127)" transform="translate(-10,-1)" stroke="none"
      >works on</text
    ></g
    ><g font-size="11px" transform="translate(1054,630)" fill-opacity="1" fill="black" text-rendering="geometricPrecision" image-rendering="optimizeQuality" font-family="sans-serif" stroke="black" stroke-opacity="1"
    ><path d="M8 13 L3 0 L13 0 Z" stroke="none" clip-path="url(#clipPath130)"
      /><text x="19" xml:space="preserve" y="14" clip-path="url(#clipPath129)" transform="translate(-2,-2)" stroke="none"
      >creates</text
    ></g
    ><g font-size="11px" transform="translate(396,589)" fill-opacity="1" fill="black" text-rendering="geometricPrecision" image-rendering="optimizeQuality" font-family="sans-serif" stroke="black" stroke-opacity="1"
    ><path d="M8 0 L13 13 L3 13 Z" stroke="none" clip-path="url(#clipPath132)"
      /><text x="30" xml:space="preserve" y="13" clip-path="url(#clipPath131)" transform="translate(-11,-1)" stroke="none"
      >creates</text
    ></g
    ><g font-size="11px" transform="translate(1365,262)" fill-opacity="1" fill="black" text-rendering="geometricPrecision" image-rendering="optimizeQuality" font-family="sans-serif" stroke="black" stroke-opacity="1"
    ><path d="M14.5 6.5 L1.5 11.5 L1.5 1.5 Z" stroke="none" clip-path="url(#clipPath134)"
      /><text x="27" xml:space="preserve" y="12" clip-path="url(#clipPath133)" transform="translate(-10,0)" stroke="none"
      >creates</text
    ></g
    ><g font-size="11px" transform="translate(1255,747)" fill-opacity="1" fill="black" text-rendering="geometricPrecision" image-rendering="optimizeQuality" font-family="sans-serif" stroke="black" stroke-opacity="1"
    ><path d="M14.5 6.5 L1.5 11.5 L1.5 1.5 Z" stroke="none" clip-path="url(#clipPath136)"
      /><text x="28" xml:space="preserve" y="12" clip-path="url(#clipPath135)" transform="translate(-10,0)" stroke="none"
      >is decomposed</text
    ></g
    ><g font-size="11px" transform="translate(28,418)" fill-opacity="1" fill="black" text-rendering="geometricPrecision" image-rendering="optimizeQuality" font-family="sans-serif" stroke="black" stroke-opacity="1"
    ><path d="M8 13 L3 0 L13 0 Z" stroke="none" clip-path="url(#clipPath138)"
      /><text x="29" xml:space="preserve" y="12" clip-path="url(#clipPath137)" transform="translate(-10,0)" stroke="none"
      >generates</text
    ></g
    ><g font-size="11px" transform="translate(143,496)" fill-opacity="1" fill="black" text-rendering="geometricPrecision" image-rendering="optimizeQuality" font-family="sans-serif" stroke="black" stroke-opacity="1"
    ><path d="M8 13 L3 0 L13 0 Z" stroke="none" clip-path="url(#clipPath140)"
      /><text x="28" xml:space="preserve" y="12" clip-path="url(#clipPath139)" transform="translate(-10,0)" stroke="none"
      >generates</text
    ></g
    ><g font-size="11px" transform="translate(1595,621)" fill-opacity="1" fill="black" text-rendering="geometricPrecision" image-rendering="optimizeQuality" font-family="sans-serif" stroke="black" stroke-opacity="1"
    ><path d="M14.4998 6.4552 L1.5346 11.5447 L1.4657 1.5449 Z" stroke="none" clip-path="url(#clipPath142)"
      /><text x="28" xml:space="preserve" y="12" clip-path="url(#clipPath141)" transform="translate(-10,0)" stroke="none"
      >updated</text
    ></g
    ><g font-size="11px" transform="translate(1510,784)" fill-opacity="1" fill="black" text-rendering="geometricPrecision" image-rendering="optimizeQuality" font-family="sans-serif" stroke="black" stroke-opacity="1"
    ><path d="M8 13 L3 0 L13 0 Z" stroke="none" clip-path="url(#clipPath134)"
      /><text x="29" xml:space="preserve" y="12" clip-path="url(#clipPath133)" transform="translate(-10,0)" stroke="none"
      >origins</text
    ></g
    ><g font-size="11px" transform="translate(1256,897)" fill-opacity="1" fill="black" text-rendering="geometricPrecision" image-rendering="optimizeQuality" font-family="sans-serif" stroke="black" stroke-opacity="1"
    ><path d="M1.5 6.5 L14.5 1.5 L14.5 11.5 Z" stroke="none" clip-path="url(#clipPath144)"
      /><text x="34" xml:space="preserve" y="13" clip-path="url(#clipPath143)" transform="translate(-10,-1)" stroke="none"
      >is composed</text
    ></g
    ><g font-size="11px" transform="translate(1345,301)" fill-opacity="1" fill="black" text-rendering="geometricPrecision" image-rendering="optimizeQuality" font-family="sans-serif" stroke="black" stroke-opacity="1"
    ><path d="M14.5 6.5 L1.5 11.5 L1.5 1.5 Z" stroke="none" clip-path="url(#clipPath146)"
      /><text x="29" xml:space="preserve" y="12" clip-path="url(#clipPath145)" transform="translate(-10,0)" stroke="none"
      >executes</text
    ></g
    ><g font-size="11px" transform="translate(1433,949)" fill-opacity="1" fill="black" text-rendering="geometricPrecision" image-rendering="optimizeQuality" font-family="sans-serif" stroke="black" stroke-opacity="1"
    ><path d="M8 0 L13 13 L3 13 Z" stroke="none" clip-path="url(#clipPath148)"
      /><text x="28" xml:space="preserve" y="14" clip-path="url(#clipPath147)" transform="translate(-11,-2)" stroke="none"
      >origins</text
    ></g
    ><g font-size="11px" transform="translate(1111,781)" fill-opacity="1" fill="black" text-rendering="geometricPrecision" image-rendering="optimizeQuality" font-family="sans-serif" stroke="black" stroke-opacity="1"
    ><path d="M8 0 L13 13 L3 13 Z" stroke="none" clip-path="url(#clipPath150)"
      /><text x="29" xml:space="preserve" y="13" clip-path="url(#clipPath149)" transform="translate(-10,-1)" stroke="none"
      >is added to</text
    ></g
    ><g font-size="11px" transform="translate(840,132)" fill-opacity="1" fill="black" text-rendering="geometricPrecision" image-rendering="optimizeQuality" font-family="sans-serif" stroke="black" stroke-opacity="1"
    ><path d="M14.5 6.5 L1.5 11.5 L1.5 1.5 Z" stroke="none" clip-path="url(#clipPath152)"
      /><text x="28" xml:space="preserve" y="13" clip-path="url(#clipPath151)" transform="translate(-9,-1)" stroke="none"
      >has</text
    ></g
    ><g font-size="11px" transform="translate(126,290)" fill-opacity="1" fill="black" text-rendering="geometricPrecision" image-rendering="optimizeQuality" font-family="sans-serif" stroke="black" stroke-opacity="1"
    ><path d="M1.5 6.5 L14.5 1.5 L14.5 11.5 Z" stroke="none" clip-path="url(#clipPath154)"
      /><text x="28" xml:space="preserve" y="12" clip-path="url(#clipPath153)" transform="translate(-11,0)" stroke="none"
      >is limited by</text
    ></g
    ><g font-size="11px" transform="translate(340,108)" fill-opacity="1" fill="black" text-rendering="geometricPrecision" image-rendering="optimizeQuality" font-family="sans-serif" stroke="black" stroke-opacity="1"
    ><path d="M8 13 L3 0 L13 0 Z" stroke="none" clip-path="url(#clipPath156)"
      /><text x="26" xml:space="preserve" y="14" clip-path="url(#clipPath155)" transform="translate(-8,-2)" stroke="none"
      >owns</text
    ></g
    ><g font-size="11px" transform="translate(735,360)" fill-opacity="1" fill="black" text-rendering="geometricPrecision" image-rendering="optimizeQuality" font-family="sans-serif" stroke="black" stroke-opacity="1"
    ><path d="M1.5 6.5 L14.5 1.5 L14.5 11.5 Z" stroke="none" clip-path="url(#clipPath158)"
      /><text x="26" xml:space="preserve" y="13" clip-path="url(#clipPath157)" transform="translate(-9,-1)" stroke="none"
      >integrates</text
    ></g
    ><g font-size="11px" transform="translate(576,1014)" fill-opacity="1" fill="black" text-rendering="geometricPrecision" image-rendering="optimizeQuality" font-family="sans-serif" stroke="black" stroke-opacity="1"
    ><path d="M14.5 6.5 L1.5 11.5 L1.5 1.5 Z" stroke="none" clip-path="url(#clipPath160)"
      /><text x="29" xml:space="preserve" y="12" clip-path="url(#clipPath159)" transform="translate(-12,0)" stroke="none"
      >has an amount of</text
    ></g
    ><g font-size="8px" fill-opacity="1" fill="rgb(120,120,120)" text-rendering="geometricPrecision" image-rendering="optimizeQuality" stroke="rgb(120,120,120)" stroke-opacity="1"
    ><text x="0" xml:space="preserve" y="10" stroke="none"
      >Visual Paradigm Standard(Pedro(Instituto Superior de Engenharia do Porto))</text
    ></g
  ></g
></svg
>
